<svg xmlns="http://www.w3.org/2000/svg" xmlns:svg="http://www.w3.org/2000/svg" viewBox="0 0 400 400">
  <mask id="wumpus">
    <circle id="bg" cx="200" cy="200" r="200" fill="#FFFFFF"/>
    <path id="body" d="M 94.723122,128.30118 C 152.94256,100.47915 222.74704,91.633904 296.10926,127.23986 278.61998,112.69563 259.58151,102.57054 237.13947,96.693644 l 1.92365,-3.416135 c 22.20749,1.536101 45.72443,8.310001 72.17,26.798421 39.91977,87.25577 34.36033,132.39243 36.88099,146.19731 -22.5412,28.45869 -49.45066,36.71109 -78.27261,38.20765 L 254.18698,284.8464 c 17.0545,-6.47368 33.18476,-11.50704 44.57559,-30.24772 -63.8209,36.35067 -129.9098,38.68131 -198.73283,0 8.04601,14.2264 24.36327,23.08738 42.9836,29.91606 L 126.5695,304.34822 C 101.17218,302.32232 75.759984,299.11099 49.382352,266.69538 50.583009,203.26426 67.431344,158.271 86.099868,120.34126 108.80103,102.09915 132.43802,96.139378 156.54522,93.012178 l 2.18898,2.520643 C 119.99248,108.0655 104.29726,118.57983 94.723122,128.30118 Z"/>
    <circle id="left-eye" fill="#FFFFFF" cx="151" cy="215" r="26"/>
    <circle id="right-eye" fill="#FFFFFF" cx="244" cy="215" r="26"/>
  </mask>
  <circle id="container" fill="#FFFFFF" cx="200" cy="200" r="200" mask="url(#wumpus)"/>
</svg>