<?xml version="1.0" encoding="utf-8"?>
<!-- Generator: Adobe Illustrator 21.1.0, SVG Export Plug-In . SVG Version: 6.00 Build 0)  -->
<svg version="1.1" id="Layer_1" xmlns="http://www.w3.org/2000/svg" xmlns:xlink="http://www.w3.org/1999/xlink" x="0px" y="0px"
	 viewBox="0 0 962.5 962.5" style="enable-background:new 0 0 962.5 962.5;" xml:space="preserve">
<style type="text/css">
	.st0{display:none;}
	.st1{display:inline;fill:#DFA22F;}
	.st2{display:inline;fill:#3CB187;}
	.st3{display:inline;fill:#CE1E5B;}
	.st4{display:inline;fill:#392538;}
	.st5{display:inline;fill:#BB242A;}
	.st6{display:inline;fill:#72C5CD;}
	.st7{display:inline;fill:#248C73;}
	.st8{display:inline;fill:#62803A;}
	.st9{fill:#FFFFFF;}
</style>
<g class="st0">
	<path class="st1" d="M576.2,200.9c-9.7-29.9-41.9-46.3-71.8-36.6c-29.9,9.7-46.3,41.9-36.6,71.8l147.3,453.2
		c10.1,28,40.3,43.7,69.3,35.3c30.2-8.7,48.7-40.8,39-70.5L576.2,200.9"/>
	<path class="st2" d="M348,275c-9.7-29.9-41.9-46.3-71.8-36.6c-29.9,9.7-46.3,41.9-36.6,71.8l147.3,453.2
		c10.1,28,40.3,43.7,69.3,35.3c30.2-8.7,48.7-40.8,39-70.5L348,275"/>
	<path class="st3" d="M761.6,576.2c29.9-9.7,46.3-41.9,36.6-71.8c-9.7-29.9-41.9-46.3-71.8-36.6L273.2,615.2
		c-28,10.1-43.7,40.3-35.3,69.3c8.7,30.2,40.8,48.7,70.5,39L761.6,576.2"/>
	<path class="st4" d="M367.7,704.2L476,669l-35.2-108.3l-108.3,35.2L367.7,704.2"/>
	<path class="st5" d="M595.9,630.1c40.9-13.3,79-25.7,108.3-35.2L669,486.5l-108.3,35.2L595.9,630.1"/>
	<path class="st6" d="M687.5,348c29.9-9.7,46.3-41.9,36.6-71.8c-9.7-29.9-41.9-46.3-71.8-36.6L199.1,386.9
		c-28,10.1-43.7,40.3-35.3,69.3c8.7,30.2,40.8,48.7,70.5,39L687.5,348"/>
	<path class="st7" d="M293.5,476c29.5-9.6,67.5-21.9,108.3-35.2c-13.3-41-25.7-79-35.2-108.3l-108.3,35.2L293.5,476"/>
	<path class="st8" d="M521.7,401.8l108.3-35.2c-11.7-36.1-23.5-72.2-35.2-108.3l-108.3,35.2L521.7,401.8"/>
</g>
<g>
	<polygon class="st9" points="521.7,401.8 521.7,401.8 401.8,440.8 440.8,560.7 560.7,521.7 521.7,401.8 	"/>
	<path class="st9" d="M481.2,0C215.5,0,0,215.5,0,481.2s215.5,481.3,481.2,481.3S962.5,747,962.5,481.2S747,0,481.2,0z M761.6,576.2
		L761.6,576.2l-57.4,18.6l19.2,59.2c9.6,29.7-8.8,61.8-39,70.5c-29,8.3-59.2-7.4-69.3-35.3l-19.2-59.2L476,669l19.2,59.2
		c9.6,29.7-8.8,61.8-39,70.5c-29,8.3-59.2-7.4-69.3-35.3l-19.2-59.2l-59.3,19.3c-29.7,9.6-61.8-8.8-70.5-39
		c-8.3-29,7.4-59.2,35.3-69.3l59.2-19.3l-39-119.9l-59.2,19.2c-29.7,9.6-61.8-8.8-70.5-39c-8.3-29,7.4-59.2,35.3-69.3l59.2-19.3l0,0
		l0,0l-18.7-57.4c-9.7-29.9,6.6-62.1,36.6-71.8c29.9-9.7,62.1,6.7,71.8,36.6l18.7,57.4l119.9-39l-18.7-57.4
		c-9.7-29.9,6.6-62.1,36.6-71.8c29.9-9.7,62.1,6.6,71.8,36.6l18.6,57.4l57.4-18.7c29.9-9.7,62.1,6.7,71.8,36.6
		c9.7,29.9-6.7,62.1-36.6,71.8v0l-57.4,18.6l39,119.9l0,0l0,0l57.4-18.7c29.9-9.7,62.1,6.7,71.8,36.6
		C807.9,534.4,791.5,566.5,761.6,576.2z"/>
</g>
</svg>
