<?xml version="1.0" encoding="utf-8"?>
<!-- Generator: Adobe Illustrator 21.1.0, SVG Export Plug-In . SVG Version: 6.00 Build 0)  -->
<svg version="1.1" id="objects" xmlns="http://www.w3.org/2000/svg" xmlns:xlink="http://www.w3.org/1999/xlink" x="0px" y="0px"
	 viewBox="0 0 755.4 390" style="enable-background:new 0 0 755.4 390;" xml:space="preserve">
<style type="text/css">
	.st0{fill:#90A1B8;}
</style>
<g>
	<circle class="st0" cx="472.3" cy="297" r="4.9"/>
	<circle class="st0" cx="476.3" cy="284.3" r="2.5"/>
	<circle class="st0" cx="527" cy="7" r="2.8"/>
	<circle class="st0" cx="723.3" cy="55.2" r="2.5"/>
	<circle class="st0" cx="680.8" cy="191.3" r="2.5"/>
	<circle class="st0" cx="685.9" cy="196.2" r="2.5"/>
	<path class="st0" d="M710.1,126.2c1.4,0,2.5-1.1,2.5-2.5c0-1.2-0.9-2.2-2-2.4l-0.4-10.8c1-0.3,1.8-1.2,1.8-2.4
		c0-1.4-1.1-2.5-2.5-2.5c-1.4,0-2.5,1.1-2.5,2.5c0,0.8,0.3,1.4,0.9,1.9l-9.5,16c-0.6-0.2-1.2-0.4-1.9-0.4c-2.7,0-4.9,2.2-4.9,4.9
		c0,2.7,2.2,4.9,4.9,4.9s4.9-2.2,4.9-4.9c0-0.7-0.1-1.3-0.4-1.9l7.1-3.6C708.5,125.8,709.2,126.2,710.1,126.2z M700.6,127.9
		c-0.3-0.5-0.8-1-1.3-1.3l9.5-16c0.1,0,0.3,0.1,0.4,0.1l0.4,10.7c-1.1,0.3-1.9,1.2-1.9,2.4c0,0.2,0,0.4,0.1,0.6L700.6,127.9z"/>
	<circle class="st0" cx="346" cy="76.4" r="4.9"/>
	<path class="st0" d="M752.6,253.7c-1,0-1.8,0.5-2.3,1.2l-10.8-4.8c0.2-0.5,0.3-1.1,0.3-1.7c0-2.7-2.2-4.9-4.9-4.9
		c-1.4,0-2.7,0.6-3.6,1.5l-3.8-3.1c0.3-0.4,0.4-0.9,0.4-1.4c0-1.4-1.1-2.5-2.5-2.5c-1,0-1.8,0.5-2.2,1.3l-54-15
		c-0.3-1-1.2-1.8-2.4-1.8c-0.8,0-1.5,0.4-2,1l-3.3-0.5c-0.1-1.3-1.1-2.3-2.5-2.3c-1.4,0-2.5,1.1-2.5,2.5c0,0.3,0.1,0.6,0.2,0.8
		l-24.2,14.8c-0.5-0.5-1.1-0.8-1.8-0.8c-0.2,0-0.4,0-0.6,0.1l-2-3.9c0.6-0.5,0.9-1.1,0.9-1.9c0-1.3-1.1-2.4-2.4-2.5l-2.1-12.7
		c0.9-0.4,1.6-1.2,1.6-2.3c0-0.7-0.3-1.4-0.8-1.8l8.9-14.8c0.6,0.3,1.3,0.5,2.1,0.5c2.7,0,4.9-2.2,4.9-4.9c0-2.7-2.2-4.9-4.9-4.9
		c-0.5,0-0.9,0.1-1.4,0.2l-4.3-10.6c0.7-0.4,1.1-1.2,1.1-2c0-0.4-0.1-0.8-0.3-1.2l8-6.7c0.8,0.8,1.9,1.3,3.1,1.3
		c2.5,0,4.5-2,4.5-4.5c0-1.6-0.8-3-2.1-3.8l4.4-9c0.2,0,0.4,0.1,0.7,0.1c2.6,0,4.7-2,4.9-4.6l9.2-2.4c0.4,0.8,1.2,1.4,2.2,1.4
		c1.4,0,2.5-1.1,2.5-2.5c0-0.8-0.4-1.4-0.9-1.9l8.6-16.5c0.1,0,0.2,0,0.4,0c1.4,0,2.5-1.1,2.5-2.5c0-1.4-1.1-2.5-2.5-2.5
		c-0.6,0-1.2,0.2-1.6,0.6l-2.2-2.3c0.3-0.4,0.4-0.9,0.4-1.4c0-1.4-1.1-2.5-2.5-2.5l-0.8-4c2.4-0.3,4.3-2.4,4.3-4.9
		c0-0.9-0.3-1.8-0.7-2.6l17.5-13.3c0.4,0.4,1,0.6,1.6,0.6c1.4,0,2.5-1.1,2.5-2.5c0-1.4-1.1-2.5-2.5-2.5c-1,0-1.9,0.6-2.3,1.5
		l-9.9-1.8c0-0.1,0-0.3,0-0.4c0-1.2-0.4-2.2-1.1-3l19.5-18.9c0.8,0.5,1.7,0.8,2.7,0.8c1.3,0,2.5-0.5,3.4-1.4l6,4
		c-0.4,0.7-0.6,1.5-0.6,2.3c0,2.7,2.2,4.9,4.9,4.9c2.7,0,4.9-2.2,4.9-4.9c0-2.4-1.7-4.4-4-4.8l1.4-15.4c2.1-0.6,3.6-2.5,3.6-4.7
		c0-2.7-2.2-4.9-4.9-4.9c-1.1,0-2.1,0.4-2.9,0.9l-4-3.8c0.2-0.4,0.4-0.8,0.4-1.3c0-1.4-1.1-2.5-2.5-2.5c-1.4,0-2.5,1.1-2.5,2.5
		c0,0.1,0,0.1,0,0.2l-6.8,1.9c-0.7-1.8-2.5-3.1-4.6-3.1c-1.8,0-3.4,1-4.2,2.4L681,35c-0.4-2.3-2.4-4.1-4.9-4.1
		c-1.9,0-3.5,1.1-4.3,2.6l-20.9-1.3c-0.3-1-1.2-1.8-2.4-1.8c-1.2,0-2.2,0.8-2.4,2h-5.6c-0.3-2.5-2.3-4.4-4.9-4.4
		c-2.7,0-4.9,2.2-4.9,4.9c0,0.6,0.1,1.2,0.3,1.8l-10.6,5.4c-0.7-1.8-2.5-3.1-4.6-3.1c-2,0-3.8,1.2-4.5,3l-9-3.8
		c0.3-0.6,0.4-1.3,0.4-2.1c0-3-2.4-5.4-5.4-5.4c-1.6,0-3,0.7-4,1.8l-4.2-2.3c0.1-0.2,0.1-0.5,0.1-0.7c0-1.4-1.1-2.5-2.5-2.5
		s-2.5,1.1-2.5,2.5c0,0.5,0.1,0.9,0.4,1.3l-2.6,2.4c-0.4-0.1-0.8-0.2-1.3-0.2c-1,0-2,0.3-2.8,0.9l-2-2.7c0.4-0.4,0.6-1,0.6-1.6
		c0-1.4-1.1-2.5-2.5-2.5c-1.1,0-2.1,0.7-2.4,1.8L554,25.3c-0.1-2.7-2.2-4.8-4.9-4.8c-2.4,0-4.3,1.6-4.8,3.8l-9.9-1.2
		c-0.1-1.3-1.2-2.3-2.4-2.3c-1.4,0-2.5,1.1-2.5,2.5c0,0.1,0,0.2,0,0.4l-17.7,6.5c-0.8-1.6-2.5-2.8-4.4-2.8c-2.6,0-4.8,2.1-4.9,4.7
		L479,31.9c-0.2-1.3-1.4-2.4-2.8-2.4c-0.4,0-0.8,0.1-1.2,0.3l-7.7-8.4c0-0.1,0-0.2,0-0.3c0-1.4-1.1-2.5-2.5-2.5
		c-1.4,0-2.5,1.1-2.5,2.5c0,0.8,0.3,1.4,0.9,1.9l-12.1,15.8c-0.8-0.5-1.6-0.7-2.6-0.7c-2.2,0-4,1.4-4.7,3.4l-16.1-3.2
		c0-0.2,0-0.3,0-0.5c0-2.7-2.2-4.9-4.9-4.9c-2.5,0-4.5,1.8-4.9,4.2l-17.4-0.8c0-0.1,0-0.2,0-0.4c0-2.5-1.9-4.6-4.3-4.9l0.4-15.2
		c1.4-0.2,2.4-1.4,2.4-2.8c0-0.3-0.1-0.7-0.2-1l0.9-0.5c0.7,0.9,1.9,1.6,3.1,1.6c2.2,0,4-1.8,4-4c0-2.2-1.8-4-4-4c-2.2,0-4,1.8-4,4
		c0,0.5,0.1,1.1,0.3,1.5l-0.9,0.5c-0.5-0.6-1.3-1-2.2-1c-1.6,0-2.8,1.3-2.8,2.8c0,1.4,1,2.5,2.3,2.8L395.4,31
		c-2.5,0.2-4.6,2.3-4.6,4.9c0,1.4,0.6,2.7,1.6,3.6l-4.8,5.5c-0.8-0.6-1.8-0.9-2.8-0.9c-2.7,0-4.8,2.2-4.8,4.8c0,0.1,0,0.2,0,0.3
		l-4.6,0.8c-0.5-1.9-2.3-3.3-4.3-3.3c-2.5,0-4.5,2-4.5,4.5c0,2.5,2,4.5,4.5,4.5c0.9,0,1.7-0.3,2.4-0.7l7.8,10
		c-1.4,0.9-2.4,2.4-2.4,4.2c0,2.1,1.3,3.9,3.2,4.6l-7,17.3c-0.4-0.1-0.9-0.2-1.4-0.2c-0.4,0-0.7,0-1.1,0.1l-2.2-6.6
		c1.3-0.6,2.3-2,2.3-3.6c0-2.2-1.8-4-4-4c-2.2,0-4,1.8-4,4c0,0.6,0.1,1.2,0.4,1.7l-12.3,7.9c-0.7-1-1.9-1.6-3.2-1.6
		c-2.2,0-4,1.8-4,4c0,1.1,0.5,2.1,1.2,2.8l-10.1,12.2c-0.8-0.5-1.7-0.8-2.7-0.8c-2.7,0-4.9,2.2-4.9,4.9c0,2.7,2.2,4.9,4.9,4.9
		c2.7,0,4.9-2.2,4.9-4.9c0-0.1,0-0.2,0-0.3l3.5-0.6c0.5,1.6,2,2.9,3.8,2.9c2.2,0,4-1.8,4-4c0-1.7-1.1-3.2-2.7-3.7l1.9-9.6
		c0.1,0,0.1,0,0.2,0c1.8,0,3.2-1.2,3.8-2.7l15.4,1.8c0,0,0,0.1,0,0.1c0,2.7,2.2,4.9,4.9,4.9s4.9-2.2,4.9-4.9c0-0.7-0.1-1.3-0.4-1.9
		l7.1-3.9c0.9,1.3,2.4,2.1,4,2.1c2.7,0,4.9-2.2,4.9-4.9c0-2.7-2.2-4.9-4.9-4.9c-0.2,0-0.5,0-0.7,0.1l-2.2-8.9
		c1.4-0.9,2.3-2.4,2.3-4.2c0-0.1,0-0.2,0-0.3l17.6-0.8c0.1,1.9,1.2,3.4,2.8,4.2l-10.4,27.3c-0.2,0-0.3-0.1-0.5-0.1
		c-1.6,0-2.8,1.3-2.8,2.8c0,1.6,1.3,2.8,2.8,2.8c1.5,0,2.6-1.1,2.8-2.5l9.3-0.7c0.5,2.1,2.5,3.7,4.8,3.7c2.7,0,4.9-2.2,4.9-4.9
		c0-2.1-1.4-4-3.3-4.6l1.3-9.2c1.5,0,2.7-1,3.2-2.3l13.4,5.5c0,0.1,0,0.3,0,0.4c0,1.4,1.1,2.5,2.5,2.5c1.2,0,2.2-0.9,2.4-2.1
		l24.2-1.1c0.1,0.7,0.3,1.3,0.7,1.9l-24.6,18.9c-0.9-1-2.2-1.6-3.6-1.6c-2.7,0-4.9,2.2-4.9,4.9c0,2.7,2.2,4.9,4.9,4.9
		c0.6,0,1.2-0.1,1.8-0.3l15.9,31.3c-1,0.7-1.8,1.8-2.1,3.1l-20.3-2.7c0,0,0-0.1,0-0.1c0-2.7-2.2-4.9-4.9-4.9c-2.7,0-4.9,2.2-4.9,4.9
		c0,0.3,0,0.6,0.1,0.9l-20.4,5.8c-0.7-1.8-2.5-3.1-4.6-3.1c-1.1,0-2,0.3-2.9,0.9l-8.4-9.6c0.6-0.7,1-1.5,1.2-2.4l14.6-1.1
		c0.2,2.7,2.4,4.8,5.1,4.8c2.8,0,5.1-2.3,5.1-5.1c0-2.8-2.3-5.1-5.1-5.1c-2.6,0-4.7,1.9-5,4.4l-14.6,1.1c0-2.8-2.3-5.1-5.1-5.1
		c-2.4,0-4.5,1.7-5,4l-9.6-1.1c0,0,0-0.1,0-0.1c0-3-2.4-5.4-5.4-5.4c-2.6,0-4.8,1.9-5.3,4.4l-13.7-1.1c-0.4-2.3-2.4-4-4.8-4
		c-2.7,0-4.9,2.2-4.9,4.9c0,0.5,0.1,1,0.2,1.4l-13.1,9.3c-0.9-1.1-2.3-1.8-3.8-1.8c-2.8,0-5.1,2.3-5.1,5.1c0,1.8,0.9,3.4,2.3,4.3
		l-2.9,8c-0.2,0-0.4-0.1-0.6-0.1c-2.2,0-4,1.8-4,4c0,1.8,1.2,3.3,2.8,3.8l-0.4,2.5c-1.2,0.1-2.2,1-2.2,2.3c0,1.3,1,2.3,2.3,2.3
		c0.1,0,0.2,0,0.2,0l2,5.8c-1.7,0.8-2.9,2.5-2.9,4.5c0,2.7,2.2,4.9,4.9,4.9c0.8,0,1.5-0.2,2.1-0.5l4.5,7.4c-1.2,0.9-2,2.3-2,3.9
		c0,2.7,2.2,4.9,4.9,4.9c2.4,0,4.4-1.7,4.8-4l11.4,0.9c0.1,2.7,2.2,4.8,4.9,4.8c2.7,0,4.9-2.2,4.9-4.9c0-0.5-0.1-1-0.3-1.5l10.9-4.7
		c0.8,1.5,2.4,2.5,4.3,2.5c2.5,0,4.6-1.9,4.9-4.4l15.8,0.1c0.1,1,0.5,2,1.2,2.7l-8.6,16.1c-0.3-0.1-0.6-0.2-1-0.2
		c-1.4,0-2.5,1.1-2.5,2.5s1.1,2.5,2.5,2.5c0.2,0,0.4,0,0.6-0.1l5.8,9.8c-1.2,0.9-2,2.3-2,4c0,2.7,2.1,4.9,4.8,4.9l1.1,6.7
		c-1.1,0.6-1.9,1.7-1.9,3c0,1.4,0.9,2.6,2.1,3.1l-1.2,17.2c-1.1,0.2-1.9,1.1-1.9,2.2c0,1.2,0.9,2.2,2.1,2.3l0.3,2.1
		c-1.8,0.8-3,2.5-3,4.5c0,2.7,2.2,4.9,4.9,4.9c1.6,0,3-0.8,3.9-1.9l15.2,6.9c-0.2,0.3-0.3,0.7-0.3,1.1c0,0.1,0,0.3,0,0.4l-6.9,3.7
		c-0.9-1-2.2-1.7-3.7-1.7c-2.7,0-4.9,2.2-4.9,4.9c0,2.7,2.1,4.8,4.8,4.9l1.1,25.1c-1.3,0.3-2.3,1.4-2.3,2.8c0,1.6,1.3,2.8,2.8,2.8
		c1.6,0,2.8-1.3,2.8-2.8c0-0.6-0.2-1.2-0.5-1.6l6.6-7.9c0.8,0.5,1.7,0.9,2.8,0.9c2.7,0,4.9-2.2,4.9-4.9c0-0.3,0-0.5-0.1-0.8
		l10.1-2.7c0.7,1.9,2.5,3.2,4.6,3.2c2.7,0,4.9-2.2,4.9-4.9c0-2.1-1.3-3.9-3.2-4.6l3.3-12.6c2.4-0.3,4.2-2.4,4.2-4.9
		c0-1.6-0.7-2.9-1.9-3.8l3.6-12.9c0.3,0,0.5,0.1,0.8,0.1c1.6,0,3-0.8,3.9-2l9.1,5.6c-0.1,0.3-0.2,0.5-0.2,0.8c0,1.4,1.1,2.5,2.5,2.5
		c1.4,0,2.5-1.1,2.5-2.5c0-1.2-0.8-2.1-1.9-2.4l0.6-12.7c1.2-0.2,2.1-1.2,2.1-2.4c0-1.4-1.1-2.5-2.5-2.5c-0.7,0-1.3,0.3-1.8,0.8
		l-15.3-9.5c0.1-0.3,0.2-0.5,0.2-0.8c0-0.3-0.1-0.7-0.2-1l12.8-9c0.4,0.3,0.9,0.5,1.5,0.5c1.4,0,2.5-1.1,2.5-2.5
		c0-0.6-0.2-1.1-0.6-1.6l4.8-7.3c0.7,0.4,1.6,0.7,2.5,0.7c2.8,0,5.1-2.3,5.1-5.1c0-1.5-0.6-2.8-1.6-3.7l6.3-8
		c0.7,0.3,1.4,0.5,2.2,0.5c2.7,0,4.9-2.2,4.9-4.9c0-2.6-2-4.7-4.6-4.9l-1.8-14.8c2.2-0.5,3.9-2.5,3.9-4.8c0-1.1-0.4-2.2-1-3l6.5-6.2
		c0.7,0.4,1.6,0.7,2.5,0.7c2.7,0,4.9-2.2,4.9-4.9c0-0.8-0.2-1.5-0.5-2.1l28.2-17.1c0.9,1.2,2.3,2,3.9,2c1.7,0,3.2-0.9,4.1-2.2
		l14.1,11.9c-0.4,0.7-0.6,1.5-0.6,2.3c0,2.7,2.2,4.9,4.9,4.9c0.3,0,0.5,0,0.8-0.1l1.4,5.1c-0.8,0.4-1.4,1.2-1.4,2.2
		c0,1.4,1.1,2.5,2.5,2.5c1.4,0,2.5-1.1,2.5-2.5s-1.1-2.5-2.5-2.5c-0.1,0-0.1,0-0.1,0l-1.4-5.1c1.4-0.6,2.5-1.7,3-3.2l13.7,1.8
		c0.3,0.8,0.8,1.5,1.4,2.1l-3.7,7.8c-0.2,0-0.4-0.1-0.6-0.1c-1.4,0-2.5,1.1-2.5,2.5c0,1.4,1.1,2.5,2.5,2.5c0.1,0,0.2,0,0.3,0l2,5.5
		c-0.4,0.3-0.8,0.6-1,1.1l-5.6-0.9c-0.1-1.3-1.2-2.2-2.4-2.2c-1.4,0-2.5,1.1-2.5,2.5c0,1.4,1.1,2.5,2.5,2.5c0.1,0,0.1,0,0.2,0
		l4.6,8.5c-0.5,0.5-0.9,1.1-0.9,1.9c0,1.4,1.1,2.5,2.5,2.5c1.4,0,2.5-1.1,2.5-2.5c0-0.9-0.5-1.7-1.2-2.1l2.3-6.6c0.1,0,0.2,0,0.3,0
		c1.4,0,2.5-1.1,2.5-2.5c0-1.4-1.1-2.5-2.5-2.5c-0.1,0-0.2,0-0.3,0l-2-5.5c0.7-0.4,1.2-1.2,1.2-2.1c0-0.8-0.4-1.5-1-2l3.7-7.7
		c0.7,0.4,1.5,0.6,2.4,0.6c2.7,0,4.9-2.2,4.9-4.9c0-0.9-0.3-1.7-0.7-2.4l4.9-3.1c0.4,0.5,1.1,0.8,1.8,0.8c1.4,0,2.5-1.1,2.5-2.5
		c0,0,0-0.1,0-0.1l9.5-2.3c0.7,2,2.6,3.4,4.8,3.4c2.1,0,3.8-1.2,4.6-3l14.1,4.7c0,2.7,2.2,4.9,4.9,4.9c0.4,0,0.8-0.1,1.1-0.1l4.4,20
		c0,0.2,0.2,0.3,0.3,0.4l7.8,2.9c-0.4,0.7-0.7,1.6-0.7,2.5c0,1.6,0.8,3,2,3.9l-8.9,14.8c-0.3-0.1-0.5-0.1-0.8-0.1
		c-1.4,0-2.5,1.1-2.5,2.5c0,1.3,1.1,2.4,2.4,2.5l2.1,12.7c-0.9,0.4-1.6,1.2-1.6,2.3c0,1.4,1.1,2.5,2.5,2.5c0.2,0,0.4,0,0.6-0.1
		l2,3.9c-0.6,0.5-0.9,1.1-0.9,1.9c0,1.4,1.1,2.5,2.5,2.5c1.4,0,2.5-1.1,2.5-2.5c0,0,0-0.1,0-0.1l20.7-5.3c0.8,1.7,2.5,2.9,4.5,2.9
		c1.9,0,3.5-1.1,4.3-2.6l13.8,5.2c0,0.1,0,0.2,0,0.4c0,1.4,1.1,2.5,2.5,2.5c1.2,0,2.2-0.8,2.4-2h41.8c0.4,0.9,1.3,1.5,2.3,1.5
		c0.5,0,1-0.1,1.3-0.4l3.9,3.2c-0.5,0.8-0.8,1.6-0.8,2.6c0,2.7,2.2,4.9,4.9,4.9c1.8,0,3.3-1,4.2-2.4l10.8,4.9
		c-0.1,0.2-0.1,0.4-0.1,0.7c0,1.6,1.3,2.8,2.8,2.8s2.8-1.3,2.8-2.8C755.4,255,754.2,253.7,752.6,253.7z M559.5,200.6
		c-0.1,0-0.2,0-0.3,0c-0.2,0-0.5,0-0.7,0.1l-4.5-8.3c0.6-0.3,1-0.8,1.2-1.4l5.5,0.9c0,0,0,0,0,0c0,0.9,0.5,1.7,1.2,2.1L559.5,200.6z
		 M577.8,158.3c-0.3,0-0.7,0.2-0.9,0.3l-12.8-14c0.5-0.9,0.8-1.9,0.8-2.9c0-3.1-2.5-5.7-5.7-5.7c-0.6,0-1.1,0.1-1.6,0.2l-5.9-15.2
		c0.4-0.2,0.7-0.5,1-0.8l21.8,16.1c-0.1,0.4-0.2,0.8-0.2,1.2c0,2.6,2.1,4.8,4.7,4.9L577.8,158.3z M544.1,161.4
		c-0.4,0-0.7,0.1-1.1,0.1l-1.8-10.6c1.3-0.3,2.3-1.4,2.3-2.8c0-0.1,0-0.2,0-0.3l11-3.3c0.5,0.8,1.2,1.5,2,2L546.3,162
		C545.6,161.7,544.9,161.4,544.1,161.4z M526.4,148.6c-0.2-1.5-1.1-2.7-2.4-3.4l5.1-11c0.2,0.1,0.5,0.1,0.7,0.1
		c0.4,0,0.7-0.1,1.1-0.2l7.7,12.1c-0.4,0.4-0.7,1-0.8,1.7L526.4,148.6z M485,166.6c-0.6,0-1.1,0.1-1.6,0.3l-7.7-10.6
		c1-0.9,1.7-2.2,1.7-3.7c0-0.3,0-0.5-0.1-0.8l20.9-8.2c0.4,0.7,0.9,1.3,1.5,1.8L487,167.1C486.4,166.8,485.7,166.6,485,166.6z
		 M461.5,153.2c-0.2-1.3-1-2.3-1.9-3.1l9.6-13.1c0.3,0.1,0.6,0.2,0.9,0.2l1.2,10.7c-2.2,0.5-3.8,2.4-3.8,4.8L461.5,153.2z
		 M417.8,80.3c-0.3,0-0.5,0-0.8,0.1l-3.3-8.4c1.4-0.9,2.3-2.4,2.3-4.1c0-0.1,0-0.2,0-0.3l18-0.3c0.1,0.9,0.5,1.8,1.1,2.5l-14.7,11.8
		C419.8,80.8,418.8,80.3,417.8,80.3z M422.9,42.7c0.7,0,1.4-0.2,2-0.5l11.7,20c-1.5,0.8-2.5,2.2-2.6,4l-18.1,0.3
		c-0.4-1.3-1.2-2.4-2.4-3l8.2-21C422,42.6,422.4,42.7,422.9,42.7z M448.6,47.9c2.7,0,4.9-2.2,4.9-4.9c0-0.3,0-0.7-0.1-1l4.2-1.4
		c0.5,0.8,1.4,1.3,2.4,1.3c0.2,0,0.5,0,0.7-0.1l5.1,27.1c-0.6,0.2-1,0.7-1.3,1.2l-20.8-3.2c0-0.1,0-0.2,0-0.3c0-1.6-0.8-3-2-3.9
		l5.9-14.9C448,47.8,448.3,47.9,448.6,47.9z M475.2,35l-3.2,6.7c0,0-0.1,0-0.1,0c-1.7,0-3.1,0.8-4,2.1l-5.2-3.5
		c0.2-0.3,0.2-0.7,0.2-1.1c0-0.2,0-0.4-0.1-0.6l11-4.6C474.1,34.4,474.6,34.8,475.2,35z M530.3,36.5c0,0.1,0,0.2,0,0.4
		c0,2.2,1.8,4,4,4c0.2,0,0.3,0,0.5,0l1.3,10.1c-0.5,0.3-1,0.6-1.4,1l-22.7-17.5c0.2-0.5,0.4-1,0.4-1.6L530.3,36.5z M574.1,29.9
		c0.4,0,0.7-0.1,1-0.2l2.1,2.8c-0.8,0.9-1.4,2.1-1.4,3.4c0,1.4,0.6,2.6,1.5,3.5l-4.7,6.3c-0.6-0.2-1.2-0.4-1.9-0.4
		c-1.1,0-2,0.3-2.8,0.9l-15.2-17.5c0.6-0.7,1.1-1.5,1.3-2.5l17.8,1.5C571.8,29,572.9,29.9,574.1,29.9z M592.1,35.4
		c0.4,1.8,1.7,3.2,3.4,3.8l-1.5,6.4l-18.6,3.4c-0.3-1.1-1-2.1-1.9-2.7l4.6-6.2c0.8,0.5,1.7,0.8,2.6,0.8c2.7,0,4.8-2.1,4.9-4.7
		L592.1,35.4z M711.7,45.7c0.2,1.2,0.8,2.2,1.6,3l-8.3,7.6c-0.9-0.8-2-1.3-3.3-1.3c-0.6,0-1.2,0.1-1.7,0.3l-4.7-11
		c1.2-0.4,2.2-1.3,2.8-2.4L711.7,45.7z M649,92.5c-0.6-1.4-1.9-2.5-3.5-2.8l1.6-13.8c0.2,0,0.3,0.1,0.5,0.1c1.8,0,3.4-1,4.2-2.4
		l20.2,9.3c-0.7,0.8-1.1,1.9-1.2,3L649,92.5z M645.2,147l-10.5-1c0-0.1,0-0.2,0-0.3c0-1.4-1.1-2.5-2.5-2.5c-1,0-1.9,0.6-2.3,1.5
		l-16.6-3.6c0-0.3,0.1-0.5,0.1-0.8c0-0.4,0-0.7-0.1-1.1l26.8-7c0.6,1.5,2,2.5,3.7,2.5c0.4,0,0.7-0.1,1-0.2l3.1,8.8
		C646.5,144,645.4,145.3,645.2,147z M618.5,158.5c-0.6,0-1.1,0.1-1.6,0.3l-6.9-13.9c1.4-0.5,2.5-1.5,3-2.9l16.7,3.6c0,0,0,0,0,0
		c0,0.8,0.4,1.5,0.9,1.9l-8.6,12.6C621.2,159.1,620,158.5,618.5,158.5z M584.1,136.9c-0.1-1-0.6-1.9-1.2-2.6l11.4-11.6
		c0.4,0.2,0.8,0.4,1.3,0.4c0.4,0,0.7-0.1,1-0.2l8.7,13.6c-0.8,0.7-1.4,1.7-1.7,2.8L584.1,136.9z M540.6,145.4
		c-0.4,0-0.8,0.1-1.2,0.3l-7.6-12.1c0.2-0.2,0.4-0.4,0.5-0.7l21.4,7.4c-0.1,0.4-0.2,0.9-0.2,1.4c0,0.7,0.1,1.4,0.4,2l-10.8,3.2
		C542.6,146,541.7,145.4,540.6,145.4z M521.6,144.5c-0.3,0-0.6,0-0.8,0.1l-10.1-17.1c0.2-0.2,0.4-0.4,0.5-0.7l15.9,4.5
		c0,0.1,0,0.2,0,0.3c0,1,0.5,1.8,1.2,2.3l-5,10.9C522.7,144.6,522.1,144.5,521.6,144.5z M472.4,147.7c0,0-0.1,0-0.1,0L471,137
		c0.8-0.3,1.4-0.8,1.7-1.6l24.9,5.5c0,0.2-0.1,0.4-0.1,0.6c0,0.5,0.1,0.9,0.2,1.4l-20.8,8.1C476.3,149.1,474.5,147.7,472.4,147.7z
		 M462.1,41.1l5.3,3.6c-0.3,0.6-0.4,1.3-0.4,2c0,2.7,2.2,4.9,4.9,4.9c1.7,0,3.2-0.8,4-2.1l13.4,4.7c0.1,0.8,0.3,1.6,0.7,2.2
		l-21,13.8c-0.4-0.9-1.2-1.4-2.2-1.5l-5.2-27.3C461.8,41.3,461.9,41.2,462.1,41.1z M507.4,37.3c1.6,0,3.1-0.8,4-2L534,52.7
		c-0.5,0.8-0.7,1.6-0.7,2.6c0,1,0.3,2,0.8,2.7l-9.2,7.6c-0.9-0.9-2.2-1.5-3.6-1.5c-2.2,0-4,1.4-4.7,3.3l-2-0.5c0-0.1,0-0.2,0-0.3
		c0-1.6-1.3-2.8-2.8-2.8c-0.8,0-1.5,0.3-2,0.8l-11.5-8.1c0.5-0.8,0.8-1.6,0.8-2.6c0-1.5-0.7-2.8-1.7-3.7l8-13.3
		C506,37.1,506.7,37.3,507.4,37.3z M537.7,38.7L566,49.1c-0.1,0.4-0.2,0.8-0.2,1.2c0,0.3,0,0.5,0.1,0.8l-22.8,3
		c-0.5-2.2-2.5-3.8-4.8-3.8c-0.4,0-0.9,0.1-1.3,0.2l-1.3-10C536.6,40.2,537.3,39.5,537.7,38.7z M615.8,46.9c0.1,0,0.2,0,0.3,0
		l0.6,19c-0.6,0.4-1,1-1.1,1.7l-21.8,1c0-0.3-0.1-0.5-0.2-0.8l19.8-21.5C614.1,46.6,614.9,46.9,615.8,46.9z M659.5,52.5
		c-0.1,0.4-0.2,0.8-0.2,1.3c0,1.2,0.5,2.3,1.2,3.2l-9.8,10.2c-0.8-0.7-1.9-1.1-3-1.1c-0.1,0-0.3,0-0.4,0L645,54.7
		c2.2-0.3,4-2,4.3-4.2L659.5,52.5z M675.8,81.1c-0.3,0-0.6,0-0.8,0.1l-5.1-13.9l13.4-2.6l-6.5,16.4
		C676.4,81.1,676.1,81.1,675.8,81.1z M674,81.5c-0.4,0.2-0.8,0.4-1.1,0.6l-20.6-9.4c0.2-0.5,0.3-1,0.3-1.6c0-0.1,0-0.3,0-0.4
		l16.3-3.1L674,81.5z M645.6,115l-6.8-1.3c0-0.8-0.4-1.6-1.1-2l5.3-12.4c0.4,0.1,0.9,0.2,1.4,0.2l4,12.4
		C647.1,112.5,646.1,113.6,645.6,115z M639.8,130.7c0,0.2,0,0.3,0.1,0.5l-26.8,7c-0.2-0.4-0.4-0.7-0.6-1l22.5-21.6
		c0.4,0.3,1,0.6,1.5,0.6c0.2,0,0.4,0,0.5-0.1l5,11.1C640.6,127.9,639.8,129.2,639.8,130.7z M582.1,133.6c-0.8-0.6-1.8-0.9-2.8-1
		l-3.1-14.2c1.3-0.3,2.4-1.1,3.1-2.2l13.9,4.2c0,0.1,0,0.1,0,0.2c0,0.5,0.2,1,0.4,1.4L582.1,133.6z M469.2,71.2l21.4-14
		c0.9,1,2.2,1.6,3.6,1.6c0.3,0,0.6,0,0.9-0.1l8.9,31.4c-0.1,0.1-0.1,0.1-0.2,0.2l-34.6-18.4C469.2,71.6,469.2,71.4,469.2,71.2z
		 M615.6,68.5c0.2,0.9,0.9,1.5,1.8,1.8l-4.1,18.3c-0.2,0-0.4-0.1-0.6-0.1c-1.2,0-2.3,0.4-3.1,1.1l-17.1-17c0.8-0.8,1.3-1.9,1.4-3.2
		L615.6,68.5z M642.1,98.9l-5.3,12.4c-0.2,0-0.3,0-0.5,0l-7-17l10.2,0.1c0,0.1,0,0.2,0,0.3C639.6,96.4,640.6,98,642.1,98.9z
		 M611.7,136.5c-0.2-0.2-0.5-0.4-0.7-0.5l10.5-23.3c0.2,0,0.4,0.1,0.5,0.1c0.8,0,1.6-0.4,2-1.1l9.9,2c0,0.4,0.1,0.8,0.3,1.1
		L611.7,136.5z M526.9,115.9c-0.2-1.7-1.1-3.1-2.5-3.9l4.5-10.5c0.3,0.1,0.6,0.1,0.9,0.1c1.5,0,2.8-0.7,3.7-1.7l11.5,14.2
		c-0.4,0.5-0.6,1.1-0.7,1.8L526.9,115.9z M509.3,123.2l-0.5-7.2l8.1,0.6c0,1.1,0.4,2.1,1,2.9l-7.1,4.4
		C510.3,123.5,509.8,123.3,509.3,123.2z M521.4,74.3c1.6,0,2.9-0.7,3.9-1.8l20.5,17.4c-0.3,0.7-0.5,1.4-0.5,2.2c0,0.2,0,0.4,0.1,0.6
		l-10.8,2.5c-0.7-2-2.5-3.4-4.7-3.4c-1.9,0-3.5,1-4.3,2.6l-1.7-1.3c0.1-0.3,0.2-0.7,0.2-1c0-1.4-1.1-2.5-2.5-2.5
		c-1.3,0-2.3,1-2.4,2.2l-6.9,0.6c-0.2-1-0.8-1.9-1.6-2.5l9-15.8C520.2,74.2,520.8,74.3,521.4,74.3z M541.4,59L556,73.5
		c-0.3,0.4-0.4,0.8-0.4,1.3c0,0.8,0.4,1.4,0.9,1.9L551,87.2c-0.3-0.1-0.6-0.1-0.9-0.1c-0.4,0-0.8,0.1-1.2,0.2l-10-27.2
		C539.8,60,540.7,59.6,541.4,59z M569.1,54.9l-0.3,17.3l-8.5,1.5c-0.3-0.5-0.7-1-1.3-1.2l9.8-17.7C568.9,54.9,569,54.9,569.1,54.9z
		 M596.6,118.4c-0.3-0.1-0.6-0.2-0.9-0.2l1-10.7c0,0,0,0,0.1,0c2.7,0,4.9-2.2,4.9-4.9c0-0.6-0.1-1.1-0.3-1.6l7.4-4.5
		c0.3,0.3,0.6,0.6,0.9,0.9L596.6,118.4z M571.4,92.5c-0.1-0.6-0.3-1.1-0.7-1.5l15.5-17.7c0.8,0.6,1.8,0.9,2.8,0.9c0.2,0,0.3,0,0.5,0
		L595,98c-1.3,0.5-2.3,1.5-2.8,2.7L571.4,92.5z M607.8,93.5c0,0.8,0.2,1.5,0.5,2.1l-7.3,4.4c-0.9-1.4-2.4-2.4-4.2-2.4
		c-0.3,0-0.6,0-0.8,0.1l-5.5-23.8c0.5-0.1,0.9-0.3,1.3-0.6l17.1,17.1C608.2,91.2,607.8,92.3,607.8,93.5z M585.4,72.6l-15.6,17.8
		c-0.1,0-0.2-0.1-0.3-0.1l0.3-17.2l14.5-2.6C584.5,71.3,584.9,72,585.4,72.6z M568.5,90.3c-1.1,0.2-2,1.2-2,2.4c0,0,0,0,0,0.1
		l-11.4-0.9c0-2-1.3-3.7-3.1-4.4l5.4-10.3c0.2,0.1,0.4,0.1,0.7,0.1c1.4,0,2.5-1.1,2.5-2.5c0,0,0-0.1,0-0.1l8.3-1.5L568.5,90.3z
		 M548.5,112c-1.1,0.1-2.1,0.6-2.8,1.3l-11.5-14.2c0.4-0.7,0.7-1.5,0.7-2.4c0-0.2,0-0.4-0.1-0.6l10.8-2.5c0.6,1.7,2,3,3.9,3.3
		L548.5,112z M521.9,111.3c-0.8,0-1.6,0.2-2.3,0.6l-9.2-14.5c1.2-0.9,1.9-2.3,1.9-3.9c0-0.1,0-0.1,0-0.2l6.9-0.6
		c0.3,1,1.2,1.8,2.4,1.8c0.6,0,1.2-0.2,1.6-0.6l1.9,1.4c-0.1,0.4-0.2,0.9-0.2,1.4c0,2.1,1.3,3.8,3.1,4.6l-4.4,10.3
		C523,111.4,522.5,111.3,521.9,111.3z M509.6,97.9l9.2,14.5c-1,0.8-1.7,1.9-1.9,3.1l-8.2-0.6l-1.2-16.5
		C508.3,98.4,509,98.2,509.6,97.9z M549.5,112l0.9-15c2.3-0.1,4.2-1.8,4.6-4l11.7,0.9c0.1,0.3,0.3,0.5,0.5,0.7l-16.6,17.7
		C550.3,112.1,549.9,112,549.5,112z M571.3,93.5l20.6,8.2c-0.1,0.3-0.1,0.6-0.1,0.9c0,0.8,0.2,1.6,0.6,2.3l-12.9,6.8
		c-0.8-1.7-2.5-2.9-4.5-2.9c-0.4,0-0.8,0.1-1.2,0.2L569.9,95C570.5,94.8,571,94.2,571.3,93.5z M579.9,112.6l13.1-6.9
		c0.7,0.8,1.6,1.4,2.7,1.7l-1.1,11c-0.5,0.2-0.9,0.6-1.2,1.1l-13.8-4.1c0.2-0.5,0.3-1.1,0.3-1.7C580,113.3,579.9,112.9,579.9,112.6z
		 M597.4,118.9l13.1-21c0.7,0.3,1.4,0.5,2.2,0.5c0.7,0,1.3-0.1,1.9-0.4l5.7,10.4c-0.5,0.5-0.9,1.1-0.9,1.9c0,0.3,0.1,0.5,0.1,0.7
		l-21.9,8.4C597.7,119.3,597.5,119.1,597.4,118.9z M635.4,111.4c-0.6,0.3-1,0.7-1.3,1.3l-9.7-2c0-0.1,0-0.3,0-0.5
		c0-1.4-1.1-2.5-2.5-2.5c-0.3,0-0.5,0-0.7,0.1l-5.7-10.4c1.1-0.8,1.9-2.1,2.1-3.5l10.7,0.1L635.4,111.4z M617.6,93
		c-0.2-2-1.5-3.6-3.3-4.2l4.1-18.5c0,0,0,0,0.1,0l9.4,22.9L617.6,93z M584.1,69.6l-14.3,2.5l0.3-16.9c0.2,0,0.4,0.1,0.6,0.1
		c1,0,1.9-0.3,2.6-0.8l11.5,12.1c-0.5,0.8-0.8,1.7-0.8,2.7C584,69.4,584.1,69.5,584.1,69.6z M567.9,54.4l-9.9,18
		c-0.5,0-0.9,0.2-1.3,0.4l-14.6-14.5c0.7-0.8,1.1-1.9,1.1-3.1c0-0.1,0-0.1,0-0.1l23-3C566.5,53,567.1,53.8,567.9,54.4z M534.8,58.8
		c0.8,0.8,1.9,1.3,3.1,1.4L548,87.6c-0.7,0.3-1.3,0.8-1.7,1.4l-20.5-17.3c0.4-0.7,0.7-1.6,0.7-2.5c0-1.1-0.3-2-0.9-2.9L534.8,58.8z
		 M518.8,73.6l-9,15.6c-0.6-0.3-1.2-0.5-1.9-0.6l3.8-19.2c0,0,0,0,0.1,0c1.1,0,2.1-0.7,2.5-1.6l2,0.5c0,0.3-0.1,0.6-0.1,0.9
		C516.3,71.1,517.3,72.7,518.8,73.6z M510.8,69.2l-3.8,19.4c-0.8,0.1-1.6,0.3-2.2,0.8l-8.7-31c0.7-0.3,1.3-0.7,1.7-1.2l11.5,8.2
		c-0.2,0.4-0.3,0.8-0.3,1.2C509,67.8,509.7,68.8,510.8,69.2z M504.4,97.4c0.6,0.5,1.3,0.8,2.1,1l1.2,16.6l-12.8-0.9
		c0-1.3-0.6-2.5-1.4-3.3L504.4,97.4z M494.8,115l12.9,0.9l0.5,7.4c-0.5,0.1-0.9,0.4-1.2,0.7l-12.9-7.3
		C494.5,116.2,494.7,115.6,494.8,115z M511.2,124.8l7.3-4.5c0.9,0.8,2.1,1.3,3.4,1.3c0.7,0,1.3-0.1,1.9-0.4l4.3,8.1
		c-0.3,0.3-0.6,0.6-0.8,1l-15.9-4.5c0-0.1,0-0.1,0-0.2C511.4,125.3,511.3,125,511.2,124.8z M531.8,129.5c-0.5-0.5-1.2-0.8-2-0.8
		c-0.3,0-0.6,0.1-0.8,0.1l-4.3-8.1c1.3-0.8,2.1-2.2,2.2-3.8l17.2,0c0,0,0,0,0,0c0,1.2,0.4,2.3,1.2,3.1L531.8,129.5z M551.6,112.7
		l16.5-17.6c0.2,0.1,0.5,0.1,0.8,0.1l4,14.1c-1.3,0.6-2.3,1.8-2.6,3.3l-16.8,2.2C553.1,113.9,552.4,113.2,551.6,112.7z M598.1,120.4
		l22.1-8.5c0.1,0.1,0.3,0.3,0.4,0.4L610,135.6c-0.5-0.2-1-0.3-1.6-0.3c-0.9,0-1.6,0.2-2.3,0.6l-8.7-13.6c0.4-0.4,0.7-1,0.7-1.7
		C598.1,120.6,598.1,120.5,598.1,120.4z M644.5,89.6c-2.3,0-4.2,1.6-4.7,3.7L629,93.2l-9.6-23.2c0.1-0.1,0.3-0.2,0.4-0.3l23,2.4
		c0.3,1.8,1.6,3.2,3.3,3.7L644.5,89.6z M652.3,69.7c-0.2-0.7-0.5-1.3-1-1.8l9.8-10.2c0.8,0.7,1.9,1.1,3,1.1c0.4,0,0.8-0.1,1.3-0.2
		l3,8L652.3,69.7z M644,54.7l2.2,11.6c-2,0.6-3.5,2.4-3.5,4.7l-22.4-2.4c0.1-0.3,0.1-0.5,0.1-0.8c0-0.3-0.1-0.6-0.2-0.9l20-14.4
		C641.1,53.8,642.4,54.6,644,54.7z M589,64.3c-1.4,0-2.6,0.6-3.5,1.4l-11.3-11.9c0.9-0.9,1.5-2.1,1.5-3.5c0-0.1,0-0.3,0-0.4
		l18.1-3.3l-4.2,17.8C589.4,64.3,589.2,64.3,589,64.3z M468.6,72.7l34.5,18.4c-0.2,0.3-0.3,0.7-0.4,1.1l-29.4-2.9
		c0-2.7-2.2-4.9-4.9-4.9l-0.9-10.9C467.9,73.4,468.3,73.1,468.6,72.7z M473.2,90.3l29.4,2.9c0,0.1,0,0.2,0,0.4
		c0,1.2,0.4,2.3,1.2,3.2l-11,13.4c-0.8-0.5-1.7-0.8-2.7-0.8c-1.1,0-2,0.3-2.8,0.9L472,92.6C472.6,92,473,91.2,473.2,90.3z M487,118
		c0.8,0.7,1.9,1.1,3,1.1c0.6,0,1.1-0.1,1.6-0.3l8.5,18.3c-1.1,0.6-1.9,1.6-2.2,2.8l-25-5.5c0,0,0-0.1,0-0.1c0-0.5-0.1-0.9-0.3-1.3
		L487,118z M502.7,136.4c-0.6,0-1.1,0.1-1.7,0.3l-8.5-18.3c0.4-0.2,0.7-0.5,1-0.8l13.1,7.3c-0.1,0.2-0.1,0.5-0.1,0.7
		c0,0.9,0.4,1.6,1.1,2.1l-3.5,8.9C503.6,136.5,503.1,136.4,502.7,136.4z M554.1,139.4l-21.4-7.4c0-0.1,0-0.3,0-0.4
		c0-0.4-0.1-0.8-0.3-1.2l13.6-9.6c0.8,0.7,1.9,1.1,3,1.1c0.6,0,1.2-0.1,1.7-0.3l5.9,15.1C555.5,137.2,554.6,138.2,554.1,139.4z
		 M553.9,115.7l16.3-2.1c0,0,0,0.1,0,0.1c0,2.7,2.2,4.9,4.9,4.9c0,0,0.1,0,0.1,0l3.1,14.2c-1.5,0.3-2.8,1.3-3.5,2.6l-21.6-16
		c0.5-0.8,0.7-1.6,0.7-2.6C554,116.5,553.9,116.1,553.9,115.7z M643.7,126.7c-0.3,0-0.6,0-0.9,0.1l-5-11.1c0.4-0.3,0.7-0.6,0.8-1
		l6.8,1.3c0,0.2,0,0.3,0,0.5c0,2.7,2.2,4.9,4.9,4.9c2.4,0,4.4-1.7,4.8-4l13.4,1.2c0,0.1,0,0.1,0,0.2l-21.9,9.4
		C646,127.3,644.9,126.7,643.7,126.7z M668.7,117.6l-13.4-1.2c0-0.7-0.2-1.4-0.4-2l11.6-3.8c0.8,0.6,1.7,1.1,2.8,1.1l0.8,4.2
		C669.4,116.3,668.9,116.9,668.7,117.6z M665.6,109.8l-11.3,3.7c-0.9-1.2-2.3-2-4-2c-0.3,0-0.7,0-1,0.1l-3.9-12.2
		c1.4-0.3,2.5-1.1,3.2-2.2l16.3,8c-0.2,0.5-0.3,1.1-0.3,1.7C664.6,108,665,109,665.6,109.8z M677.7,81.5l6.7-16.9l13-2.5
		c0.2,0.5,0.6,1,1,1.4l-19.4,18.8C678.5,82,678.1,81.7,677.7,81.5z M693.8,44.7c0.2,0,0.4,0,0.6-0.1l4.8,11.2
		c-1.4,0.9-2.3,2.4-2.3,4.2c0,0.4,0.1,0.8,0.1,1.2l-12.2,2.3l7.5-19C692.8,44.6,693.3,44.7,693.8,44.7z M676.1,40.8
		c2.6,0,4.8-2.1,4.9-4.7l8,2.5c-0.1,0.3-0.1,0.7-0.1,1c0,1.9,1,3.5,2.6,4.3l-7.8,19.7l-14.2,2.7l-3-8.2c1.6-0.8,2.7-2.5,2.7-4.4
		c0-1.5-0.7-2.9-1.8-3.8l6.5-9.8C674.5,40.6,675.3,40.8,676.1,40.8z M659.9,51.6l-10.5-2c-0.1-2.3-1.8-4.1-3.9-4.5l3.8-9.8
		c0.2,0,0.3-0.1,0.4-0.2l11.5,15C660.6,50.5,660.2,51,659.9,51.6z M648.1,35.3l-3.7,9.6c-0.6,0-1.1,0.1-1.7,0.3l-4.3-8.2
		c1.2-0.8,2-2.1,2.2-3.6h5.6C646.3,34.4,647.1,35.1,648.1,35.3z M635.6,37.8c0.7,0,1.3-0.1,1.8-0.4l4.3,8.2c-1.2,0.8-2,2-2.2,3.5
		l-10.4-2.9l4.6-8.7C634.4,37.7,635,37.8,635.6,37.8z M639.5,50.2c0,0.5,0.1,1,0.3,1.5l-20.1,14.5c-0.2-0.2-0.5-0.4-0.8-0.5
		l9.7-18.5L639.5,50.2z M618,65.4c-0.1,0-0.2,0-0.3,0l-0.5-18.8c1.2-0.3,2.2-1.1,2.8-2l7.8,2.2L618,65.4z M612.6,45.6l-19.4,21.1
		c-0.6-1-1.5-1.7-2.6-2.1l4.3-18.2l16.3-3C611.4,44.3,611.9,45.1,612.6,45.6z M545.6,28.9c0.9,0.9,2.1,1.4,3.5,1.4
		c1.1,0,2-0.3,2.8-0.9l15.2,17.5c-0.3,0.4-0.6,0.8-0.8,1.2l-28.2-10.4c0.1-0.3,0.1-0.6,0.1-0.9c0-0.6-0.1-1.1-0.4-1.6L545.6,28.9z
		 M504.5,36.3l-7.9,13.2c-0.7-0.4-1.5-0.6-2.4-0.6c-2.5,0-4.5,1.8-4.9,4.2l-12.9-4.6c0.3-0.6,0.4-1.2,0.4-1.9c0-0.7-0.2-1.5-0.5-2.1
		l26.4-10.7C503,34.8,503.7,35.7,504.5,36.3z M439,71.5c2.2,0,4.1-1.6,4.7-3.7l20.7,3.2c0,0,0,0.1,0,0.1c0,0.3,0.1,0.6,0.2,0.9
		l-25.8,16.9c-0.3-0.3-0.7-0.5-1.1-0.6L439,71.5z M439.2,89.8L465,72.9c0.4,0.4,0.9,0.6,1.5,0.7l0.9,10.9c-2.2,0.4-3.8,2.3-4,4.6
		l-24.2,1.1C439.2,90,439.2,89.9,439.2,89.8z M468.3,94.2c1.1,0,2.1-0.4,2.9-1l15.2,17.5c-0.8,0.9-1.3,2.1-1.3,3.4
		c0,0.3,0,0.6,0.1,0.9l-24-0.9c-0.3-1.7-1.4-3.1-2.9-3.8l9.3-16.2C467.8,94.2,468.1,94.2,468.3,94.2z M461.2,115.1l24.2,0.9
		c0.2,0.5,0.5,0.9,0.8,1.3l-14.3,14.9c-0.5-0.4-1.2-0.7-1.9-0.7c-0.5,0-0.9,0.1-1.3,0.3l-9.6-12.9
		C460.3,118,461.1,116.7,461.2,115.1z M505,137l3.5-8.9c0.1,0,0.3,0,0.4,0c0.3,0,0.5-0.1,0.8-0.1l10,16.9c-1.1,0.4-1.9,1.2-2.5,2.2
		l-9.7-4.1c0.1-0.5,0.2-1,0.2-1.5C507.8,139.5,506.6,137.8,505,137z M584.1,137.9l19.4,2.4c0,1.2,0.5,2.3,1.2,3.2l-5.6,7l-15.9-10.2
		C583.8,139.6,584.1,138.8,584.1,137.9z M605.5,144.2c0.8,0.6,1.8,1,3,1c0.2,0,0.4,0,0.6-0.1l7,14.1c-0.5,0.3-1,0.7-1.4,1.2
		l-14.6-9.4L605.5,144.2z M631.6,148c0.2,0.1,0.4,0.1,0.6,0.1c0.9,0,1.7-0.5,2.1-1.2l10.8,1.1c0,0.5,0.1,1,0.3,1.5L623,160.7
		L631.6,148z M654.9,147c-0.3-2.4-2.4-4.3-4.9-4.3c-0.4,0-0.8,0.1-1.2,0.2l-3.2-8.8c0.9-0.5,1.6-1.4,1.9-2.5l8.3,1.9c0,0,0,0,0,0
		c0,1.4,1.1,2.5,2.5,2.5c0.4,0,0.7-0.1,1-0.2l5.1,7.1c-0.4,0.4-0.7,1-0.7,1.7c0,0,0,0.1,0,0.1L654.9,147z M667,142.2
		c-0.2-0.1-0.4-0.1-0.7-0.1c-0.4,0-0.7,0.1-1,0.2l-5.1-7.1c0.4-0.4,0.7-1,0.7-1.7c0-1.4-1.1-2.5-2.5-2.5c-1,0-1.9,0.6-2.2,1.4
		l-8.5-1.9c0-0.6-0.2-1.1-0.4-1.6l21.7-9.3c0.4,0.6,1.2,1.1,2,1.1c0.5,0,1-0.1,1.3-0.4l2.3,2.4c-0.2,0.3-0.2,0.7-0.2,1
		c0,0.9,0.5,1.7,1.2,2.1L667,142.2z M690.4,89.3c0,0.4,0.1,0.7,0.2,1l-17.5,13.3c-0.9-1-2.2-1.6-3.6-1.6c-1.8,0-3.3,0.9-4.2,2.3
		l-16.3-8c0.2-0.5,0.3-1.1,0.3-1.7c0-0.4-0.1-0.7-0.1-1.1l21.6-6.6c0.4,2.3,2.4,4.1,4.9,4.1c2.2,0,4.1-1.5,4.7-3.6L690.4,89.3z
		 M715.5,65c-1.5,0-2.8,0.7-3.7,1.8l-5.9-4c0.6-0.8,0.9-1.8,0.9-2.8c0-1.1-0.4-2.1-1-2.9l8.5-7.8c0.7,0.4,1.5,0.6,2.4,0.6
		c0.1,0,0.2,0,0.3,0L715.5,65z M705.5,37c0.4,0.8,1.2,1.3,2.2,1.3c0.5,0,1-0.2,1.4-0.4l3.9,3.7c-0.7,0.8-1.2,1.9-1.3,3L698.5,41
		c0.1-0.4,0.2-0.8,0.2-1.3c0-0.3,0-0.6-0.1-0.8L705.5,37z M673,39.7l-6.5,9.8c-0.7-0.4-1.5-0.6-2.3-0.6c-0.8,0-1.6,0.2-2.3,0.6
		l-11.5-15c0.3-0.4,0.5-0.8,0.6-1.3l20.4,1.3c-0.1,0.4-0.2,0.9-0.2,1.4C671.2,37.4,671.9,38.8,673,39.7z M631.5,35.6
		c0.4,0.6,0.8,1.1,1.4,1.4l-4.7,8.9l-7.8-2.2c0.2-0.6,0.3-1.2,0.3-1.8c0-0.3,0-0.5-0.1-0.8L631.5,35.6z M611,40.9
		c-0.1,0.3-0.1,0.7-0.1,1c0,0.2,0,0.3,0.1,0.5l-15.8,2.9l1.4-6c0.3,0,0.6,0.1,0.8,0.1c1.9,0,3.5-1,4.5-2.4L611,40.9z M585.4,29.5
		c0.4,0.3,0.9,0.5,1.4,0.5c0.7,0,1.4-0.3,1.9-0.9l4.1,2.3c-0.5,0.8-0.8,1.8-0.8,2.8c0,0.1,0,0.2,0,0.3l-6.4,0.7
		c-0.3-1.5-1.2-2.8-2.6-3.5L585.4,29.5z M529.9,24.6c0.4,0.7,1.2,1.2,2.1,1.2c1.1,0,2-0.7,2.3-1.7l9.9,1.2c0,0,0,0.1,0,0.1
		c0,1,0.3,1.9,0.8,2.7l-7.6,6.3c-0.7-0.9-1.8-1.5-3.1-1.5c-1.7,0-3.2,1.1-3.7,2.6l-18.2-3.7c0-0.2-0.1-0.4-0.1-0.6L529.9,24.6z
		 M475.8,43.7c-0.7-0.9-1.7-1.6-2.8-1.8l3.2-6.6c1.4,0,2.5-1,2.8-2.3l22.8,0.2L475.8,43.7z M464.1,23.4c0.2,0.1,0.5,0.1,0.7,0.1
		c0.9,0,1.6-0.4,2.1-1.1l7.3,7.9c-0.5,0.5-0.8,1.2-0.8,2c0,0.2,0,0.4,0.1,0.6l-11,4.6c-0.5-0.8-1.4-1.3-2.4-1.3
		c-1.6,0-2.8,1.3-2.8,2.8c0,0.2,0,0.4,0.1,0.6l-4.2,1.3c-0.3-0.6-0.7-1.2-1.1-1.6L464.1,23.4z M443.7,42.4c0,0.2-0.1,0.4-0.1,0.6
		c0,2.1,1.3,3.9,3.2,4.6L441,62.2c-0.6-0.3-1.3-0.5-2.1-0.5c-0.5,0-0.9,0.1-1.3,0.2l-11.7-20.1c0.9-0.6,1.5-1.5,1.8-2.5L443.7,42.4z
		 M418,38c0.1,1.8,1.2,3.3,2.7,4.1l-8.1,21c-0.5-0.1-0.9-0.2-1.4-0.2c-0.8,0-1.6,0.2-2.3,0.6L398,40.2c1.2-0.6,2.1-1.7,2.5-3L418,38
		z M346.3,106.1c-0.1,0-0.2,0-0.3,0c-2.2,0-4,1.8-4,4c0,0,0,0.1,0,0.1l-3.5,0.6c-0.2-0.8-0.6-1.6-1.2-2.2l10.1-12.3
		c0.2,0.1,0.5,0.2,0.8,0.3L346.3,106.1z M353.4,93c0-0.1,0-0.2,0-0.2c0-0.5-0.1-1-0.3-1.5l12.4-7.9c0.7,0.9,1.8,1.4,3,1.4
		c0.3,0,0.5,0,0.8-0.1l2.2,6.6c-1.4,0.6-2.5,1.9-2.8,3.4L353.4,93z M387.5,82.6c-1.9,0.7-3.3,2.5-3.3,4.6c0,0.7,0.1,1.3,0.4,1.9
		l-7.1,3.9c-0.4-0.6-1.1-1.2-1.7-1.5l7.1-17.4c0.3,0,0.5,0.1,0.8,0.1c0.6,0,1.1-0.1,1.7-0.3L387.5,82.6z M383.6,64.3
		c-0.6,0-1.1,0.1-1.6,0.3l-7.9-10.2c0.9-0.8,1.4-2,1.4-3.2c0-0.1,0-0.2,0-0.2l4.6-0.8c0.6,2,2.4,3.6,4.6,3.6c2.7,0,4.8-2.2,4.8-4.8
		c0-1.3-0.5-2.4-1.3-3.2l4.9-5.5c0.7,0.4,1.6,0.7,2.5,0.7c0.5,0,0.9-0.1,1.3-0.2L408,64.1c-0.9,0.8-1.6,1.8-1.7,3.1l-17.9,0.8
		C387.8,65.8,385.9,64.3,383.6,64.3z M414.9,95.9c-2.7,0-4.9,2.2-4.9,4.9c0,0.1,0,0.1,0,0.2l-9.3,0.7c-0.2-0.7-0.6-1.3-1.3-1.7
		l10.5-27.4c0.4,0.1,0.8,0.2,1.2,0.2c0.6,0,1.2-0.1,1.8-0.3l3.3,8.3c-1,0.6-1.7,1.7-1.7,2.9c0,1.5,1,2.8,2.4,3.2l-1.3,9.1
		C415.4,96,415.2,95.9,414.9,95.9z M421.2,83.8C421.2,83.7,421.2,83.7,421.2,83.8c0-0.6-0.1-1-0.3-1.4l14.8-11.9
		c0.6,0.5,1.4,0.9,2.2,1l-1.4,16.8c-0.7,0.1-1.4,0.5-1.7,1.1L421.2,83.8z M464.8,92.7c0.5,0.5,1.1,1,1.8,1.2l-9.3,16.1
		c-0.3-0.1-0.7-0.1-1-0.1c-2.4,0-4.4,1.8-4.8,4.1h-10.6c0-0.9-0.3-1.8-0.7-2.5L464.8,92.7z M438.6,118.3c1.1-0.7,1.9-1.9,2.2-3.2
		l10.6,0c0.1,2.7,2.2,4.8,4.9,4.8c0.7,0,1.4-0.2,2-0.4l9.7,13c-0.5,0.5-0.8,1.2-0.8,1.9c0,0.9,0.4,1.6,1,2.2l-9.5,13.1
		c-0.7-0.3-1.4-0.5-2.2-0.5c-0.7,0-1.4,0.1-2,0.4L438.6,118.3z M467.4,183.5l-16.1-3.5c0,0,0-0.1,0-0.1c0-1.6-1.3-2.8-2.8-2.8
		c-0.8,0-1.6,0.4-2.1,1l-14.9-9.1c0.1-0.3,0.2-0.7,0.2-1c0-1.5-1.2-2.8-2.8-2.8l-1.6-10c1-0.2,1.9-0.7,2.6-1.5l37.9,28.9
		C467.7,182.8,467.5,183.1,467.4,183.5z M457.8,224.2l-11.7-2.4c0-0.8-0.4-1.5-1-1.9l6-17.7c0.1,0,0.2,0,0.3,0c0.2,0,0.3,0,0.5,0
		l8.1,19.1C459,222,458.2,223,457.8,224.2z M432.2,223.5c-0.4-2.3-2.4-4.1-4.8-4.1c-0.1,0-0.2,0-0.3,0l-1.3-8l7.2-1.3
		c0.3,0.8,1.1,1.4,2.1,1.4c0.3,0,0.6-0.1,0.9-0.2l6.2,8.8c-0.4,0.4-0.6,0.9-0.6,1.5c0,0,0,0.1,0,0.1L432.2,223.5z M436.5,267.6
		l-8.9-6.7l7.9-8c0.4,0.2,0.8,0.4,1.2,0.4l2.1,12.9C437.9,266.5,437.1,267,436.5,267.6z M427.8,292.7l-16.9-0.3
		c-0.2-0.5-0.6-0.9-1.1-1.2l2.1-10.2c0.2,0,0.4,0.1,0.6,0.1c1.5,0,2.8-0.6,3.8-1.6l12.4,10.2c-0.6,0.8-1,1.8-1,2.9
		C427.8,292.6,427.8,292.7,427.8,292.7z M389.4,277.8l5.4-12.7c0.5,0.2,1.1,0.3,1.6,0.3c1.3,0,2.5-0.5,3.5-1.3l8.4,8.2
		c-0.7,0.9-1.2,2.1-1.2,3.4c0,0.3,0,0.6,0.1,0.9l-15.2,4.2C391.6,279.5,390.6,278.4,389.4,277.8z M389.8,248.7l6.6-6.2l12.8,6.9
		c-0.3,0.7-0.5,1.4-0.5,2.2c0,0.6,0.1,1.2,0.3,1.8l-8,3.9c-0.9-1.5-2.6-2.6-4.6-2.6c-1.4,0-2.6,0.5-3.5,1.4l-3.1-2.9
		c0.5-0.6,0.8-1.4,0.8-2.2C390.7,250,390.3,249.3,389.8,248.7z M387.8,232.5l15.8-15.8c0.4,0.3,0.9,0.4,1.4,0.4c0.2,0,0.3,0,0.5,0
		l3.9,9.2c-0.6,0.4-1.1,1.2-1.1,2c0,0.5,0.1,0.9,0.4,1.3l-12.4,11.7l-6.7-3.6c0.1-0.4,0.2-0.8,0.2-1.3
		C389.7,234.7,389,233.4,387.8,232.5z M313.7,167.7l19.6-3.6c0.3,0.8,1.1,1.4,2,1.4l2.9,13.6c-1.3,0.4-2.4,1.4-3,2.6L313.5,170
		c0.2-0.4,0.3-0.9,0.3-1.4C313.8,168.3,313.7,168,313.7,167.7z M344.3,154c0.1,0.1,0.2,0.1,0.3,0.2l-4.4,24.7
		c-0.2,0-0.4-0.1-0.5-0.1c-0.2,0-0.4,0-0.5,0.1l-2.9-13.6c0.8-0.4,1.3-1.1,1.3-2.1c0-0.5-0.2-0.9-0.4-1.3L344.3,154z M343.7,180.9
		l11.3-12.8c0.8,0.6,1.8,0.9,2.9,0.9c0.1,0,0.2,0,0.2,0l3.8,24.7c-1.1,0.3-2.1,0.9-2.7,1.9l-15.4-9.1c0.5-0.8,0.9-1.7,0.9-2.8
		C344.6,182.7,344.3,181.7,343.7,180.9z M363.2,193.5c-0.1,0-0.2,0-0.2,0l-3.8-24.7c1-0.3,1.8-0.8,2.5-1.5l12.7,9
		c-0.3,0.7-0.6,1.4-0.6,2.2c0,2.7,2.2,4.9,4.9,4.9c0.6,0,1.1-0.1,1.7-0.3l5.3,11.6c-1,0.8-1.7,2-1.8,3.3l-15.8-0.1
		C367.8,195.5,365.8,193.5,363.2,193.5z M381.5,146.8c1.1,0,2.1-0.4,2.9-1l8.4,9.6c-0.8,0.9-1.3,2.1-1.3,3.4c0,1.3,0.5,2.4,1.3,3.3
		l-11.2,12.6c-0.6-0.5-1.4-0.8-2.2-0.9L381.5,146.8z M388.7,193.7c-0.8,0-1.5,0.2-2.2,0.5l-5.3-11.5c1.4-0.9,2.4-2.4,2.4-4.2
		c0-1.3-0.5-2.4-1.3-3.3l11.2-12.6c0.8,0.6,1.8,0.9,2.9,0.9c0.6,0,1.1-0.1,1.6-0.3l8,17c-1.7,0.8-2.9,2.5-2.9,4.5
		c0,0.6,0.1,1.2,0.3,1.8l-11.2,8.7C391.4,194.3,390.1,193.7,388.7,193.7z M412.2,182.1l14.7-12c0.2,0.2,0.5,0.4,0.8,0.5l-4.3,21.8
		c-0.2,0-0.4-0.1-0.5-0.1c-1.4,0-2.7,0.6-3.7,1.5l-7.1-6.1c0.6-0.8,0.9-1.8,0.9-2.8C413.1,183.8,412.8,182.9,412.2,182.1z
		 M445.9,181.1L427,194.2c-0.7-0.8-1.5-1.4-2.6-1.7l4.3-21.8c0,0,0,0,0.1,0c0.8,0,1.6-0.4,2.1-1l14.9,9.1c-0.1,0.3-0.2,0.7-0.2,1
		C445.7,180.4,445.8,180.8,445.9,181.1z M450.2,201.9l-6,17.6c-0.1,0-0.2,0-0.3,0c-0.3,0-0.6,0.1-0.9,0.2l-6.2-8.8
		c0.4-0.4,0.6-0.9,0.6-1.5c0-0.2,0-0.5-0.1-0.7l12.4-7.3C449.7,201.6,449.9,201.7,450.2,201.9z M432.8,209.2l-7.2,1.3l-1.3-7.7
		c0.8-0.2,1.5-0.6,2.1-1.1l6.7,6.5C432.9,208.5,432.8,208.9,432.8,209.2z M409.3,230.3c0.4,0.2,0.8,0.4,1.2,0.4l2.1,15.8
		c-1.2,0.3-2.2,0.9-2.9,1.9l-12.6-6.7L409.3,230.3z M413.8,246.4c-0.1,0-0.1,0-0.2,0l-2.1-15.9c1-0.3,1.6-1.2,1.7-2.3l9.7-1.9
		c0.5,1.1,1.4,2,2.6,2.5l-10,17.8C414.9,246.6,414.4,246.4,413.8,246.4z M422.4,224.4c0,0.4,0,0.7,0.1,1.1l-9.5,1.8
		c-0.4-0.9-1.3-1.5-2.3-1.5c-0.2,0-0.3,0-0.5,0l-3.9-9.2c0.6-0.4,1-1.1,1.1-1.9l17.3-3l1.3,8C424,220.2,422.4,222.1,422.4,224.4z
		 M419.4,201.7c0.9,0.8,2.2,1.4,3.5,1.4c0.1,0,0.3,0,0.4,0l1.3,7.7l-17.3,3c-0.1-0.1-0.1-0.3-0.2-0.4L419.4,201.7z M415.8,271.6
		c-0.9-0.8-2.1-1.2-3.4-1.2c-1.3,0-2.5,0.5-3.5,1.3l-8.4-8.2c0.7-0.9,1.2-2.1,1.2-3.4c0-0.7-0.1-1.3-0.4-1.9l8-3.9
		c0.9,1.4,2.5,2.4,4.3,2.4c1.6,0,3-0.7,3.9-1.9l8.4,6.3L415.8,271.6z M418.3,253.9c0.3-0.6,0.5-1.3,0.6-2l15.6-0.4
		c0.1,0.3,0.2,0.6,0.3,0.8l-8,8.1L418.3,253.9z M434.5,250.5l-15.7,0.4c-0.2-1.6-1.1-2.9-2.4-3.7l10-17.9c0.3,0.1,0.6,0.1,0.9,0.1
		c0.4,0,0.8-0.1,1.2-0.2l7,19.6C435,249.2,434.6,249.7,434.5,250.5z M448.9,199.8c0,0.3,0.1,0.5,0.1,0.8l-12.4,7.3
		c-0.4-0.4-1-0.7-1.6-0.7c-0.5,0-0.9,0.1-1.2,0.4l-6.7-6.5c0.7-0.9,1.2-2.1,1.2-3.3c0-1-0.3-1.8-0.7-2.6l18.9-13.1
		c0.5,0.5,1.2,0.8,1.9,0.8l2.2,14.7C449.6,197.8,448.9,198.7,448.9,199.8z M421.7,152c0.7,1.8,2.5,3.1,4.5,3.1l1.6,10.1
		c-1.1,0.4-1.9,1.4-1.9,2.7c0,0.5,0.1,1,0.4,1.4l-14.7,12c-0.9-0.9-2.1-1.4-3.5-1.4c-0.4,0-0.7,0.1-1.1,0.1l-8-17.1
		c1.4-0.9,2.4-2.4,2.4-4.2c0-0.3,0-0.6-0.1-0.9L421.7,152z M376.3,141.6C376.3,141.6,376.3,141.6,376.3,141.6c0,2.6,1.8,4.7,4.2,5.1
		l-2.1,27c-1.4,0.1-2.7,0.8-3.5,1.8l-12.7-8.9c0.4-0.7,0.7-1.5,0.7-2.4c0-2.3-1.6-4.2-3.7-4.8l2.1-14.6c0.1,0,0.2,0,0.3,0
		c2.6,0,4.7-1.8,5.3-4.3L376.3,141.6z M333.4,140.7c0.8,1.5,2.4,2.5,4.3,2.5c2.7,0,4.9-2.2,4.9-4.8l13.5,1.1c0,2.5,1.8,4.6,4.1,5.1
		l-2.1,14.6c-0.1,0-0.1,0-0.2,0c-2.7,0-4.9,2.2-4.9,4.9c0,1.3,0.5,2.5,1.3,3.3l-11.2,12.7c-0.5-0.5-1.2-0.9-1.9-1.1l4.4-24.7
		c1.3,0,2.4-1.1,2.4-2.5c0-1.4-1.1-2.5-2.5-2.5c-1.4,0-2.5,1.1-2.5,2.5c0,0.5,0.2,1,0.5,1.4l-7.1,7.8c-0.3-0.2-0.7-0.3-1.1-0.3
		c-0.7,0-1.3,0.3-1.7,0.7l-12.9-7.3c0.3-0.6,0.4-1.3,0.4-2c0-0.9-0.3-1.8-0.7-2.5L333.4,140.7z M314.2,157.1
		c0.6,0.2,1.2,0.4,1.9,0.4c1.7,0,3.2-0.9,4.2-2.2l12.9,7.3c-0.1,0.2-0.1,0.4-0.1,0.6l-19.7,3.7c-0.4-0.8-1.1-1.5-1.9-1.8
		L314.2,157.1z M309.5,179c0.6-0.4,1.1-1.1,1.1-1.9c0-0.9-0.6-1.7-1.4-2.1l0.4-2.5c0.1,0,0.1,0,0.2,0c1.3,0,2.5-0.7,3.2-1.7
		l21.9,11.8c-0.1,0.3-0.1,0.7-0.1,1.1c0,0.2,0,0.4,0.1,0.5l-17.5,3.8c-0.6-2-2.5-3.4-4.7-3.4c-0.4,0-0.8,0.1-1.1,0.1L309.5,179z
		 M347.6,204.7c-0.8-1.5-2.4-2.5-4.3-2.5c-2.4,0-4.4,1.7-4.8,4l-11.4-0.9c-0.1-2.7-2.2-4.8-4.9-4.8c-0.8,0-1.5,0.2-2.1,0.5l-4.5-7.4
		c1.2-0.9,2-2.3,2-3.9c0-0.2,0-0.4-0.1-0.5l17.5-3.8c0.6,2,2.5,3.4,4.7,3.4c1.3,0,2.5-0.5,3.4-1.4l15.6,9.1c-0.3,0.6-0.5,1.3-0.5,2
		c0,0.5,0.1,1,0.3,1.5L347.6,204.7z M376.9,222.1c0.6-0.5,1-1.2,1-2c0-0.6-0.3-1.2-0.7-1.7l8.5-15.9c0.8,0.6,1.8,1,3,1
		c2.7,0,4.9-2.2,4.9-4.9c0-1-0.3-1.8-0.8-2.6l11.1-8.5c0.9,1.3,2.4,2.2,4.1,2.2c1.3,0,2.5-0.5,3.4-1.3l7.1,6.1c-0.6,0.9-1,2-1,3.1
		c0,1.2,0.4,2.4,1.2,3.3l-12.3,11.6c-0.4-0.3-0.9-0.4-1.4-0.4c-1.4,0-2.5,1.1-2.5,2.5c0,0.5,0.2,1,0.4,1.4L387,231.9
		c-0.7-0.3-1.4-0.5-2.2-0.5c-0.7,0-1.4,0.2-2.1,0.5L376.9,222.1z M385.7,241.2c1.5-0.3,2.8-1.3,3.5-2.6l6.3,3.4L389,248
		c-0.5-0.3-1.1-0.5-1.8-0.5c-0.2,0-0.4,0-0.6,0.1L385.7,241.2z M386,275.5c0.8-0.3,1.4-1.1,1.4-2.1c0-1-0.7-1.9-1.6-2.2l1.2-17
		c0.1,0,0.2,0,0.3,0c0.7,0,1.3-0.2,1.8-0.5l3.2,3c-0.7,0.9-1.2,2-1.2,3.3c0,2,1.1,3.8,2.8,4.7l-5.5,12.8c-0.4-0.1-0.7-0.1-1.1-0.1
		c-0.3,0-0.7,0-1,0.1L386,275.5z M392.2,281.8l15.2-4.2c0.6,1.5,1.9,2.7,3.4,3.2l-2.1,10.1c-0.1,0-0.1,0-0.2,0
		c-0.6,0-1.1,0.2-1.6,0.6l-15.3-6.9c0.3-0.7,0.5-1.4,0.5-2.2C392.3,282.1,392.2,282,392.2,281.8z M428.3,309.7
		c-2.7,0-4.9,2.2-4.9,4.9c0,0.3,0,0.5,0.1,0.8l-10.1,2.7c-0.7-1.9-2.5-3.2-4.6-3.2c-2.7,0-4.9,2.2-4.9,4.9c0,1.3,0.5,2.5,1.4,3.4
		l-6.6,7.8c-0.3-0.2-0.7-0.4-1.2-0.5l-1.1-25.2c2.3-0.4,4.1-2.4,4.1-4.9c0-0.9-0.3-1.7-0.7-2.5l6.7-3.6c0.4,0.7,1.2,1.1,2.1,1.1
		c1.3,0,2.4-1.1,2.5-2.4l16.9,0.3c0.5,2.1,2.3,3.6,4.5,3.8l-3.3,12.3C428.8,309.7,428.6,309.7,428.3,309.7z M434.9,288.2
		c-0.7-0.3-1.4-0.5-2.2-0.5c-1.3,0-2.4,0.5-3.3,1.3l-12.5-10.2c0.6-0.9,0.9-1.9,0.9-3c0-1.3-0.5-2.5-1.3-3.4l10.4-10.6l9,6.7
		c-0.4,0.7-0.7,1.6-0.7,2.5c0,2.1,1.3,3.9,3.2,4.6L434.9,288.2z M454,262.1c-0.1,0.3-0.2,0.5-0.2,0.8c0,1.2,0.8,2.1,1.9,2.4
		l-0.6,12.7c-0.6,0.1-1,0.4-1.4,0.7l-9.1-5.6c0.3-0.6,0.5-1.4,0.5-2.1c0-2.7-2.2-4.9-4.9-4.9c-0.1,0-0.2,0-0.3,0l-2.1-12.9
		c0.3-0.1,0.7-0.3,0.9-0.6L454,262.1z M454.6,236.8c-0.3-0.2-0.7-0.3-1.1-0.3c-1.4,0-2.5,1.1-2.5,2.5c0,0.4,0.1,0.9,0.3,1.2
		l-12.7,8.9c-0.4-0.4-1-0.7-1.7-0.7c-0.1,0-0.2,0-0.3,0l-7.1-19.6c1.6-0.8,2.8-2.4,2.8-4.3l9.5-1.7c0.4,0.7,1.1,1.2,2,1.2
		c0.9,0,1.7-0.5,2.1-1.3l11.7,2.4c0,0.2-0.1,0.4-0.1,0.5c0,1.6,0.7,2.9,1.8,3.9L454.6,236.8z M473.9,204.7c-2.4,0.3-4.2,2.4-4.2,4.9
		c0,1.6,0.8,3,1.9,3.9l-6.2,8c-0.8-0.5-1.7-0.8-2.7-0.8c-0.6,0-1.2,0.1-1.7,0.3l-8.1-19.1c0.6-0.4,1.1-1.2,1.1-2
		c0-1.3-1-2.4-2.3-2.5l-2.2-14.7c0.8-0.3,1.4-0.8,1.7-1.6l16.1,3.5c0,0.2-0.1,0.4-0.1,0.5c0,2.7,2.2,4.9,4.9,4.9c0,0,0.1,0,0.1,0
		L473.9,204.7z M475.2,181.3c-0.9-0.7-2-1.2-3.2-1.2c-1.4,0-2.7,0.6-3.6,1.6l-37.9-28.9c0.3-0.4,0.5-0.9,0.6-1.4l20.3,2.7
		c0,0.1,0,0.1,0,0.2c0,2.8,2.3,5.1,5.1,5.1c2.8,0,5.1-2.3,5.1-5.1l5.9-0.6c0.4,2.3,2.4,4,4.8,4c0.9,0,1.7-0.3,2.5-0.7l7.6,10.4
		c-1.4,0.9-2.4,2.4-2.4,4.2c0,1.5,0.6,2.7,1.6,3.7L475.2,181.3z M488.9,168.6c-0.3-0.4-0.6-0.7-1-1l12.7-21.5
		c0.7,0.3,1.4,0.5,2.1,0.5c1.9,0,3.6-1.1,4.5-2.7l9.7,4.1c-0.1,0.5-0.2,0.9-0.2,1.4c0,0.8,0.2,1.5,0.5,2.1L488.9,168.6z
		 M526.1,151.2c0.2-0.5,0.3-1,0.3-1.6l11.3-0.7c0.3,1.1,1.2,1.9,2.3,2.1l1.9,10.9c-0.7,0.3-1.2,0.8-1.7,1.3L526.1,151.2z M549,166.8
		c0-0.1,0-0.2,0-0.4c0-1.6-0.7-2.9-1.8-3.8l10.1-15.6c0.6,0.2,1.2,0.3,1.9,0.3c0.7,0,1.3-0.1,1.9-0.3l5.1,16.1
		c-2.3,0.4-4.1,2.4-4.1,4.9c0,0.2,0,0.4,0.1,0.6L549,166.8z M570.8,164.7c-0.9-1-2.1-1.6-3.5-1.7l-5.2-16.4c0.5-0.3,1-0.7,1.4-1.1
		l12.7,13.9c-0.3,0.4-0.5,0.9-0.5,1.4c0,0.3,0.1,0.6,0.2,0.8L570.8,164.7z M580.3,159.7c-0.3-0.6-0.9-1.1-1.5-1.3l1.2-15.9
		c1.1-0.2,2-0.7,2.7-1.4l15.9,10.2l-0.9,1.2c-0.8-0.5-1.8-0.8-2.8-0.8c-2.8,0-5.1,2.3-5.1,5.1c0,0.2,0,0.5,0.1,0.7L580.3,159.7z
		 M598.4,153.1l1-1.3l14.7,9.4c-0.2,0.4-0.4,0.8-0.5,1.3l-13.9-4.7c0.1-0.4,0.1-0.7,0.1-1.1C600,155.3,599.4,154,598.4,153.1z
		 M625,187.7l-4.4-19.8c1.7-0.8,2.9-2.5,2.9-4.5c0-0.6-0.1-1.2-0.3-1.7l22.7-11.4c0.6,0.9,1.5,1.6,2.5,2l-4.3,8.8
		c-0.5-0.2-1-0.3-1.5-0.3c-2.5,0-4.5,2-4.5,4.5c0,0.9,0.3,1.8,0.8,2.5l-8,6.7c-0.4-0.3-0.9-0.5-1.5-0.5c-1.4,0-2.5,1.1-2.5,2.5
		c0,1.4,1.1,2.5,2.5,2.5c0.2,0,0.3,0,0.5,0l4.3,10.6c-0.5,0.3-0.9,0.6-1.3,1L625,187.7z M664.7,226.3l-3.4,3c-0.7-0.5-1.5-0.9-2.4-1
		l0.4-2.6c1-0.1,1.8-0.7,2.1-1.6l3,0.4c0,0.2-0.1,0.4-0.1,0.5C664.4,225.6,664.5,226,664.7,226.3z M633.9,239.3l23.5-14.3
		c0.3,0.3,0.6,0.5,1,0.6l-0.4,2.7c-2.5,0.2-4.5,2.3-4.5,4.9c0,0.4,0,0.7,0.1,1.1L633.9,239.3z M663.1,234.6c0.1-0.4,0.2-0.9,0.2-1.4
		c0-1.2-0.5-2.4-1.2-3.2l3.3-2.9c0.4,0.3,0.9,0.5,1.5,0.5c1.2,0,2.2-0.9,2.4-2.1l53.7,14.9c0,0,0,0.1,0,0.1h-41.6
		c-0.2-1.1-1.2-2-2.4-2c-0.9,0-1.6,0.5-2.1,1.2L663.1,234.6z"/>
	<path class="st0" d="M744.2,292.3c-0.2,0-0.5,0-0.7,0.1l-5-16.1c0.8-0.4,1.3-1.2,1.3-2.1c0-1.4-1.1-2.5-2.5-2.5
		c-1.4,0-2.5,1.1-2.5,2.5c0,0.9,0.5,1.8,1.3,2.2l-4.9,16.9c-0.1,0-0.1,0-0.2,0c-0.8,0-1.5,0.4-2,1L720,290c0.2-0.5,0.3-1,0.3-1.6
		c0-2.7-2.2-4.9-4.9-4.9c-0.6,0-1.2,0.1-1.7,0.3l-2.7-5.6c0.6-0.5,1-1.2,1-1.9c0-1.4-1.1-2.5-2.5-2.5c-1.4,0-2.5,1.1-2.5,2.5
		c0,0.2,0,0.4,0.1,0.6l-13.1,6.4c-0.9-1.4-2.4-2.3-4.2-2.3c-2.7,0-4.9,2.2-4.9,4.9c0,0.8,0.2,1.5,0.5,2.1l-26.2,12.8
		c-0.5-0.6-1.1-1-1.9-1c-1.4,0-2.5,1.1-2.5,2.5c0,1,0.7,1.9,1.6,2.3l1.4,19.9c-1,0.3-1.8,1.2-1.8,2.4c0,1.4,1.1,2.5,2.5,2.5
		c1,0,1.9-0.6,2.3-1.5l22.1,0.6c0.2,1.2,1.2,2,2.4,2c1.4,0,2.5-1.1,2.5-2.5c0-0.5-0.1-0.9-0.4-1.3l7-6.5l7.8,5.8
		c-0.2,0.4-0.3,0.8-0.3,1.3c0,1.6,1.3,2.8,2.8,2.8c1.2,0,2.2-0.8,2.6-1.8l2.9,0.5c0,1.3,1.1,2.4,2.5,2.4c0.6,0,1.1-0.2,1.5-0.5l7,6
		c-0.2,0.3-0.3,0.7-0.3,1.2c0,1.4,1.1,2.5,2.5,2.5s2.5-1.1,2.5-2.5c0-0.1,0-0.1,0-0.2l8.8-2.6c0.7,1.8,2.5,3,4.5,3
		c2.7,0,4.9-2.2,4.9-4.9c0-2.4-1.7-4.3-3.9-4.8l0.3-9.5c2.3-0.4,4-2.4,4-4.8c0-2-1.2-3.7-2.9-4.5l2.2-9.2c0.1,0,0.3,0,0.4,0
		c2.2,0,4-1.8,4-4C748.2,294.1,746.4,292.3,744.2,292.3z M658.7,324.5l-1.3-19.7c0.9,0,1.7-0.6,2-1.3l16.6,5.2
		c-0.1,0.3-0.1,0.6-0.1,1c0,1.2,0.4,2.2,1.1,3.1l-16.9,12.5C659.8,324.8,659.3,324.5,658.7,324.5z M683,305.2l5.6-14.6
		c0.4,0.1,0.8,0.2,1.3,0.2c2.3,0,4.2-1.6,4.7-3.6l15.9,1.9c0.1,0.5,0.2,1,0.5,1.5l-25.9,16.6C684.6,306.4,683.9,305.7,683,305.2z
		 M715.4,293.3c0.1,0,0.2,0,0.3,0l2.9,18l-11.1-1c0-1.3-0.7-2.4-1.7-3.1l7.7-14.3C714.1,293.2,714.7,293.3,715.4,293.3z
		 M707.4,311.4l11.3,1l1.8,11.5l-6.1,3.3c-0.5-0.5-1.1-0.9-1.9-0.9c-0.2,0-0.4,0-0.6,0.1l-6.3-12.6
		C706.6,313.3,707.2,312.4,707.4,311.4z M735.1,315.9l-13.6,7.4l-1.8-10.9l14.9,1.3c0,0,0,0.1,0,0.1
		C734.6,314.6,734.8,315.3,735.1,315.9z M715,328.1l5.8-3.2l1.7,10.6c-0.2,0.1-0.5,0.2-0.6,0.4l-7-6c0.2-0.3,0.3-0.7,0.3-1.2
		C715.1,328.5,715,328.3,715,328.1z M724.5,335.7c-0.3-0.2-0.7-0.3-1.1-0.3l-1.8-11l13.9-7.6c0.3,0.4,0.7,0.8,1.1,1.1L724.5,335.7z
		 M734.8,312.8l-15.2-1.3l-2.9-18.3c0.7-0.2,1.3-0.5,1.8-0.9l17.7,18.1C735.5,311,735,311.8,734.8,312.8z M707.6,277.7
		c0.5,0.6,1.1,1,1.9,1c0.2,0,0.4,0,0.6-0.1l2.7,5.6c-1.3,0.8-2.2,2.2-2.3,3.9l-15.7-1.9c0-0.1,0-0.2,0-0.3c0-0.6-0.1-1.2-0.3-1.7
		L707.6,277.7z M686,288.9c0.5,0.6,1,1.1,1.7,1.4l-5.6,14.6c-0.4-0.1-0.8-0.2-1.3-0.2c-2,0-3.8,1.2-4.5,3l-16.6-5.2
		c0-0.1,0-0.1,0-0.2c0-0.2,0-0.4-0.1-0.6L686,288.9z M686.7,326c-0.4-0.3-0.9-0.5-1.4-0.5c-1.2,0-2.1,0.8-2.4,1.9l-22-0.6
		c0-0.3-0.1-0.6-0.2-0.8l17-12.6c0.9,0.7,1.9,1.1,3.1,1.1c1.5,0,2.8-0.6,3.7-1.7l9,6.7L686.7,326z M694.2,318.9l-9.2-6.8
		c0.4-0.7,0.7-1.6,0.7-2.5c0-0.5-0.1-1-0.3-1.5l26-16.7c0.3,0.4,0.7,0.8,1.1,1l-7.7,14.3c-0.4-0.2-0.9-0.3-1.4-0.3c-2.2,0-4,1.8-4,4
		c0,1,0.4,1.8,0.9,2.5L694.2,318.9z M704.7,324.4c-0.7,0-1.4,0.3-1.9,0.8l-7.7-5.7l6.2-5.8c0.7,0.5,1.5,0.8,2.3,0.8
		c0.4,0,0.9-0.1,1.3-0.2l6.3,12.6c-0.3,0.3-0.6,0.6-0.8,1l-2.9-0.5c0,0,0,0,0,0C707.5,325.7,706.2,324.4,704.7,324.4z M739.1,328.2
		c-2.7,0-4.9,2.2-4.9,4.9c0,0.3,0,0.6,0.1,1l-8.8,2.6c-0.1-0.1-0.1-0.2-0.2-0.3l12.3-18c0.6,0.3,1.2,0.4,1.9,0.4L739.1,328.2
		C739.2,328.2,739.2,328.2,739.1,328.2z M740.7,309.1c-0.4-0.1-0.7-0.1-1.1-0.1c-1,0-1.9,0.3-2.7,0.8l-17.7-18.2
		c0.2-0.2,0.3-0.4,0.5-0.6l9.1,4.2c0,0.2-0.1,0.4-0.1,0.6c0,1.4,1.1,2.5,2.5,2.5c1.4,0,2.5-1.1,2.5-2.5c0-0.9-0.5-1.8-1.3-2.2
		l4.9-16.9c0.1,0,0.1,0,0.2,0c0.1,0,0.2,0,0.2,0l5,16.1c-1.4,0.6-2.3,2-2.3,3.6c0,1.7,1.1,3.1,2.6,3.7L740.7,309.1z"/>
	<path class="st0" d="M302.1,22l5.5-7.9c0.7,0.4,1.5,0.7,2.4,0.7c2.7,0,4.9-2.2,4.9-4.9c0-2.7-2.2-4.9-4.9-4.9c-2,0-3.8,1.2-4.5,3
		l-7.8-2.5c0-0.2,0.1-0.3,0.1-0.5c0-2.7-2.2-4.9-4.9-4.9s-4.9,2.2-4.9,4.9c0,0,0,0,0,0L286,5.4c-0.4-0.9-1.2-1.6-2.3-1.6
		c-1.4,0-2.5,1.1-2.5,2.5c0,0.4,0.1,0.8,0.3,1.1l-14.9,10.1c-0.4-0.4-1-0.7-1.7-0.7c-0.6,0-1.1,0.2-1.5,0.5l-6.7-5.7
		c0.1-0.2,0.1-0.4,0.1-0.7c0-1.4-1.1-2.5-2.5-2.5c-0.7,0-1.3,0.3-1.7,0.7L247,7.3c0-0.1,0-0.2,0-0.3c0-1.4-1.1-2.5-2.5-2.5
		c-1.2,0-2.2,0.8-2.4,2l-17,0c-0.2-1.1-1.2-2-2.4-2c-1.4,0-2.5,1.1-2.5,2.5s1.1,2.5,2.5,2.5c1.2,0,2.2-0.8,2.4-2l17,0
		c0.2,1.1,1.2,2,2.4,2c0.9,0,1.7-0.5,2.1-1.2l5.3,1.8c-0.1,0.3-0.2,0.6-0.2,0.9c0,1.4,1.1,2.5,2.5,2.5c0.8,0,1.4-0.3,1.9-0.9
		l6.5,5.6c-0.2,0.4-0.3,0.8-0.3,1.2c0,0.9,0.5,1.7,1.2,2.1l-6.6,18.8c0,0-0.1,0-0.1,0c-2.7,0-4.9,2.2-4.9,4.9c0,2.7,2.2,4.9,4.9,4.9
		s4.9-2.2,4.9-4.9c0-0.9-0.3-1.8-0.7-2.5l4.9-3.1c0.4,0.5,1.1,0.7,1.8,0.7c1.4,0,2.5-1.1,2.5-2.5c0-0.7-0.3-1.3-0.8-1.8l5.2-8.3
		c0.7,0.3,1.4,0.5,2.2,0.5c2.4,0,4.3-1.7,4.8-3.9l12.1,1.4c0.1,2.6,2.3,4.7,4.9,4.7c2.7,0,4.9-2.2,4.9-4.9
		C303.7,24.2,303.1,22.9,302.1,22z M305.2,8.8c-0.1,0.3-0.1,0.7-0.1,1c0,1.5,0.7,2.8,1.7,3.7l-5.5,7.8c-0.8-0.5-1.6-0.8-2.6-0.8
		c-0.4,0-0.7,0-1,0.1l-3.6-11.1c1.6-0.4,2.9-1.7,3.4-3.3L305.2,8.8z M290.3,9.1L280,19.5c-0.8-0.7-1.9-1.1-3.1-1.1
		c-2,0-3.7,1.2-4.5,2.9l-5.1-1.7c0-0.1,0-0.2,0-0.3c0-0.3-0.1-0.7-0.2-0.9l14.9-10.1c0.4,0.3,1,0.5,1.5,0.5c1.3,0,2.4-1.1,2.5-2.4
		L288,6C288.3,7.3,289.1,8.4,290.3,9.1z M268.7,35.5c-0.3-0.1-0.6-0.2-0.9-0.2c-1.4,0-2.5,1.1-2.5,2.5c0,0.3,0.1,0.6,0.2,0.9
		l-4.9,3.2c-0.7-0.7-1.5-1.2-2.5-1.5l6.5-18.7c0.1,0,0.2,0,0.3,0c0.9,0,1.7-0.5,2.1-1.2l5.1,1.7c-0.1,0.4-0.1,0.7-0.1,1.1
		c0,1.6,0.8,3,1.9,3.9L268.7,35.5z M280.7,20.2l10.6-10.6c0.5,0.2,1,0.3,1.6,0.3c0.1,0,0.2,0,0.3,0l3.6,11.2c-1.5,0.7-2.6,2-2.9,3.7
		l-12.1-1.4c0,0,0,0,0-0.1C281.8,22.1,281.4,21,280.7,20.2z"/>
	<circle class="st0" cx="184.5" cy="387.5" r="2.5"/>
	<path class="st0" d="M243.1,275.6c-0.1,0-0.2,0-0.3,0l-4.2-12.3c0.9-0.9,1.4-2.1,1.4-3.5c0-2.7-2.2-4.9-4.9-4.9
		c-1.7,0-3.2,0.9-4.1,2.2l-25.8-10.2l12.3-3c0.7,1.8,2.5,3,4.6,3c2.7,0,4.9-2.2,4.9-4.9c0-2.7-2.2-4.9-4.9-4.9
		c-1.3,0-2.5,0.5-3.4,1.4l-12-11c0.6-0.8,1-1.8,1-2.9c0-2.7-2.2-4.9-4.9-4.9c-1.6,0-3,0.8-3.9,1.9l-12.9-8.1
		c0.1-0.3,0.2-0.6,0.2-0.9c0-1.4-1.1-2.5-2.5-2.5c-0.3,0-0.7,0.1-1,0.2l-5.6-5c0.1-0.2,0.1-0.4,0.1-0.7c0-1.3-1-2.3-2.3-2.3
		c-1.1,0-2.1,0.8-2.2,1.9l-17.3-0.1c0.1-0.3,0.2-0.6,0.2-0.9c0-1.4-1.1-2.5-2.5-2.5c-0.1,0-0.2,0-0.4,0l-6.8-28.2
		c2-0.7,3.4-2.5,3.4-4.7c0-2.7-2.2-4.9-4.9-4.9c-0.8,0-1.6,0.2-2.3,0.6l-11.9-19.2c0.9-0.9,1.4-2.1,1.4-3.4c0-1.3-0.5-2.5-1.3-3.3
		l10.3-16.9c0.5,0.1,0.9,0.2,1.4,0.2c2.7,0,4.9-2.2,4.9-4.9c0-0.8-0.2-1.5-0.5-2.1l7.3-3.1c0.9,1.3,2.4,2.2,4.2,2.2
		c2.8,0,5.1-2.3,5.1-5.1c0-0.7-0.2-1.4-0.5-2.1l23.1-9.2c0.9,1.4,2.4,2.3,4.1,2.3c2.7,0,4.9-2.2,4.9-4.9c0-0.7-0.1-1.3-0.4-1.9
		l17.4-6.4c0.9,0.7,2,1.2,3.2,1.2c2.7,0,4.9-2.2,4.9-4.9c0-2.7-2.2-4.9-4.9-4.9c-0.3,0-0.6,0-0.9,0.1l-4.7-12.8
		c0.7-0.4,1.2-1.2,1.2-2.1c0-1.4-1.1-2.5-2.5-2.5c-1.4,0-2.5,1.1-2.5,2.5c0,0.1,0,0.1,0,0.2l-7.7,2.3c-0.7-1.8-2.5-3-4.6-3
		c-2.7,0-4.9,2.2-4.9,4.9c0,1.8,0.9,3.3,2.3,4.2l-1.8,7.8c-0.5,0.2-0.9,0.6-1.1,1.1l-5.7-3c0.1-0.3,0.2-0.6,0.2-0.9
		c0-1.4-1.1-2.5-2.5-2.5c-1.4,0-2.5,1.1-2.5,2.5c0,0.6,0.2,1.2,0.6,1.6l-8.8,9.3c-0.4-0.2-0.8-0.4-1.3-0.4c-1.1,0-2,0.7-2.3,1.7
		l-12-1.6c-0.1-1.2-1.1-2.1-2.2-2.1c-0.1,0-0.2,0-0.3,0l-1.8-5.1c1.6-0.8,2.6-2.5,2.6-4.3c0-2.7-2.2-4.9-4.9-4.9
		c-0.7,0-1.3,0.1-1.9,0.4l-3.1-5.5c0.5-0.5,0.9-1.1,0.9-1.9c0-1.4-1.1-2.5-2.5-2.5c-1.4,0-2.5,1.1-2.5,2.5c0,0.7,0.3,1.3,0.8,1.8
		l-7.5,12c-0.3-0.1-0.6-0.2-0.9-0.2c-0.1,0-0.1,0-0.2,0l-3.4-11.9c1.4-0.8,2.3-2.2,2.3-3.9c0-1.1-0.4-2.1-1.1-2.9l11-22.2
		c0.3,0.1,0.6,0.1,1,0.1c0,0,0,0,0,0l1.7,7.1c-2.2,0.2-4,2-4,4.3c0,2.4,1.9,4.3,4.3,4.3s4.3-1.9,4.3-4.3c0-0.8-0.3-1.6-0.7-2.3
		l3.3-3c0.4,0.2,0.8,0.3,1.2,0.3c1,0,1.9-0.6,2.3-1.6L159,41c0.2,2.1,1.9,3.6,3.9,3.6c0.1,0,0.2,0,0.2,0c2.2-0.1,3.8-2,3.7-4.2
		c0-0.6-0.2-1.1-0.5-1.6l1.2-0.6c0.5,0.5,1.1,0.9,1.9,0.9c1.4,0,2.5-1.1,2.5-2.5c0-1.4-1.1-2.5-2.5-2.5c-1,0-1.9,0.6-2.2,1.5
		l-22.6-5c-0.2-2.6-2.3-4.6-4.9-4.6c-2.7,0-4.9,2.2-4.9,4.9c0,0.7,0.2,1.4,0.4,2l-5.9,5.3c-0.9-0.8-2-1.3-3.2-1.3
		c-2.1,0-3.9,1.4-4.6,3.3l-2-0.4c0-0.1,0-0.3,0-0.4c0-1.8-1.4-3.2-3.2-3.2c-1.2,0-2.3,0.7-2.8,1.7l-7.6-2.5c0-0.1,0-0.2,0-0.3
		c0-1.4-1.1-2.5-2.5-2.5c-1.1,0-2.1,0.7-2.4,1.8l-13.4-1.1c-0.2-2.5-2.3-4.4-4.9-4.4c-2.6,0-4.7,2-4.9,4.5l-0.5,0L63.9,34
		c-0.6-2-2.5-3.5-4.7-3.5c-2.4,0-4.4,1.7-4.8,4.1L45.6,33c0-0.1,0-0.2,0-0.3c0-2.4-1.9-4.3-4.3-4.3c-2.1,0-3.8,1.5-4.2,3.5l-2.3-0.2
		c0-1.5-1.2-2.7-2.7-2.7c-1.5,0-2.7,1.2-2.7,2.7c0,0.6,0.2,1.1,0.5,1.5l-7.2,6.2l-0.4,0.2c-0.8-0.8-1.9-1.3-3.1-1.3
		c-2.5,0-4.5,2-4.5,4.5c0,1.9,1.2,3.5,2.8,4.2l-0.9,3c-0.1,0-0.3,0-0.4,0c-1.6,0-2.8,1.3-2.8,2.8c0,0.1,0,0.2,0,0.3l-2.9,0.6
		c-0.7-2.2-2.7-3.9-5.1-3.9c-3,0-5.4,2.4-5.4,5.4c0,3,2.4,5.4,5.4,5.4c3,0,5.4-2.4,5.4-5.4c0-0.2,0-0.3-0.1-0.5l3-0.6
		c0.5,0.9,1.4,1.6,2.5,1.6c1.6,0,2.8-1.3,2.8-2.8c0-1.1-0.6-2-1.5-2.5l0.9-3.1c0.2,0,0.5,0.1,0.8,0.1c2.2,0,4-1.6,4.4-3.7l14.9,4.1
		c0,0.1,0,0.1,0,0.2c0,1.4,1.1,2.5,2.5,2.5c0.8,0,1.5-0.4,1.9-0.9l10.1,5.1c-0.2,0.4-0.3,0.8-0.3,1.2c0,1.4,1.1,2.5,2.5,2.5
		c0.1,0,0.1,0,0.2,0l2.4,8.4c-0.8,0.4-1.3,1.2-1.3,2.2c0,1.2,0.8,2.2,2,2.4l0,15.1c-2.3,0.3-4,2.1-4,4.5c0,1.9,1.1,3.5,2.8,4.2
		l-2.7,8.8c-0.5-0.2-0.9-0.3-1.4-0.3c-2.5,0-4.4,2-4.4,4.4c0,1.3,0.6,2.5,1.6,3.4l-3.3,4.2c-0.6-0.4-1.3-0.6-2-0.6c-2.2,0-4,1.8-4,4
		s1.8,4,4,4c0.2,0,0.3,0,0.5-0.1l3.2,12.3c-1.9,0.7-3.2,2.5-3.2,4.6c0,2.7,2.2,4.9,4.9,4.9c1.1,0,2.2-0.4,3-1l10.3,11
		c-0.2,0.4-0.4,0.8-0.4,1.3c0,1.3,1,2.3,2.3,2.3c0.4,0,0.8-0.1,1.2-0.3l4.2,4.3c-0.7,0.9-1.2,1.9-1.2,3.1c0,1,0.3,1.8,0.8,2.6
		l-2.5,2c-0.3-0.1-0.6-0.2-1-0.2c-1.3,0-2.3,1-2.3,2.3c0,1.3,1,2.3,2.3,2.3c0.7,0,1.4-0.3,1.8-0.9l17.3,5.6c0.2,1.2,1.2,2.1,2.4,2.1
		c1.2,0,2.2-0.9,2.4-2l7.7-0.7c0.1,0.9,0.6,1.7,1.4,2.1l0,4.3c-1.1,0.2-2,1.2-2,2.4c0,1.4,1.1,2.5,2.5,2.5c0.7,0,1.3-0.3,1.8-0.7
		l9.7,5.1c-0.4,0.4-0.6,0.9-0.6,1.6c0,1.3,1,2.3,2.3,2.3c1.3,0,2.3-1,2.3-2.3c0-0.4-0.1-0.7-0.3-1l0.9-0.4c0.4,0.5,1.1,0.8,1.8,0.8
		c0.7,0,1.3-0.3,1.7-0.7l21.4,14.8v0c0,0.3,0.1,0.6,0.2,0.8l-4.1,5.4c-0.3-0.2-0.7-0.3-1.1-0.3c-1.3,0-2.3,1-2.3,2.3
		c0,1,0.7,1.8,1.6,2.1l-1.2,8.6c-0.1,0-0.1,0-0.2,0c-2.7,0-4.9,2.2-4.9,4.9c0,2.7,2.2,4.9,4.9,4.9l1.4,15.5c-1,0.3-1.7,1.2-1.7,2.3
		c0,1.4,1.1,2.5,2.5,2.5c0,0,0,0,0,0l10.2,14.7c-0.6,0.8-1,1.9-1,3c0,2.8,2.3,5.1,5.1,5.1c1.3,0,2.4-0.5,3.3-1.3l10.1,3.4l-0.3,5.3
		c-2.7,0.1-4.8,2.2-4.8,4.9c0,2.6,2,4.7,4.6,4.9v9.2c-0.4-0.1-0.9-0.2-1.3-0.2c-2.8,0-5.1,2.3-5.1,5.1s2.3,5.1,5.1,5.1
		c0.2,0,0.3,0,0.4,0l3.7,19.5c-0.9,0.4-1.5,1.3-1.5,2.3c0,1.4,1.1,2.5,2.5,2.5l2.9,7.8c-0.8,0.4-1.3,1.2-1.3,2.1
		c0,1.4,1.1,2.5,2.5,2.5c0.2,0,0.4,0,0.5-0.1l9.3,21c-0.6,0.4-1,1.2-1,2c0,1.4,1.1,2.5,2.5,2.5c1.4,0,2.5-1.1,2.5-2.5
		c0-1-0.6-1.8-1.4-2.2l4.9-19.7c0.2,0,0.3,0,0.5,0c2.7,0,4.9-2.2,4.9-4.9c0-1.5-0.7-2.8-1.7-3.7l0.6-20.5l6.6-0.2
		c0.4,0.9,1.2,1.6,2.3,1.6c1.4,0,2.5-1.1,2.5-2.5c0-0.6-0.2-1.1-0.5-1.5l7.9-6.1c0.9,1,2.2,1.6,3.6,1.6c2.7,0,4.9-2.2,4.9-4.9
		c0-1.3-0.5-2.5-1.3-3.4l11.5-16.4c0.6,0.3,1.3,0.4,2,0.4c2.7,0,4.9-2.2,4.9-4.9c0-1.2-0.5-2.3-1.2-3.2l5.6-6.2
		c0.4,0.2,0.8,0.3,1.2,0.3c1.4,0,2.5-1.1,2.5-2.5C245.6,276.7,244.5,275.6,243.1,275.6z M210.8,312.1l-4.4-0.5l2.6-9.1
		c0.3,0.1,0.6,0.1,0.9,0.1c0.5,0,1-0.1,1.5-0.2l2.1,7C212.3,309.8,211.3,310.8,210.8,312.1z M202,322.3c-0.4,0-0.8,0.1-1.1,0.3
		l-5.7-7c0.9-0.9,1.5-2.2,1.5-3.6c0-0.2,0-0.4-0.1-0.5l8.5,1l-2.9,9.9C202.2,322.4,202.1,322.3,202,322.3z M185.1,347.5l-15.3-7.7
		c0.1-0.2,0.1-0.4,0.1-0.6c0-0.6-0.2-1.1-0.5-1.5l5.2-9.3c0.7,0.4,1.6,0.7,2.5,0.7c0.4,0,0.8-0.1,1.2-0.2l9,16.6
		C186.4,346,185.6,346.6,185.1,347.5z M151.5,270.8l0.1-10.8c1-0.2,1.8-1.1,1.8-2.2c0-1.3-1-2.3-2.3-2.3c-1,0-1.8,0.6-2.1,1.5
		l-10-1.3c0,0,0-0.1,0-0.1c0-0.3-0.1-0.6-0.2-0.9l13.5-5.3c0.8,1.6,2.5,2.7,4.4,2.7c0.6,0,1.2-0.1,1.8-0.3l4.7,9.2
		c-1.4,0.9-2.3,2.4-2.3,4.1c0,0.9,0.3,1.7,0.7,2.5l-6.9,4.9C153.9,271.6,152.8,270.9,151.5,270.8z M138.4,216l3.9-5.2
		c0.4,0.4,1.1,0.7,1.7,0.7c0.2,0,0.4,0,0.6-0.1l19,18.9c-0.2,0.3-0.4,0.8-0.4,1.2c0,0.7,0.3,1.3,0.7,1.7l-5.3,9.4
		c-0.6-0.3-1.3-0.4-2-0.4c-0.8,0-1.5,0.2-2.2,0.5l-15.8-24.7c0.1-0.3,0.2-0.5,0.2-0.8C138.8,216.8,138.6,216.4,138.4,216z
		 M150.6,203.3c0,0.6,0.2,1.1,0.6,1.5l-5,3.3c-0.3-0.7-1-1.3-1.7-1.4l0-5.3L150.6,203.3z M181.5,213.7c0.2,0.5,0.6,0.8,1.1,1.1
		l-4,15.9l-9.8-12.4c0.9-0.8,1.5-2,1.6-3.3L181.5,213.7z M202,229.3l-0.6,15.4c-1.1,0.2-2,1.2-2,2.4c0,0.6,0.2,1.1,0.5,1.5l-3.7,4.2
		l-5.4-6.8c0.4-0.4,0.7-1,0.7-1.7c0-0.7-0.3-1.3-0.7-1.7l9.5-13.9C200.8,229.1,201.4,229.3,202,229.3z M230.4,261.6l-6.5,4.8
		c-0.5-0.6-1.2-1-1.9-1c-1.1,0-2,0.7-2.3,1.8l-9.1-1.6c0.1-0.4,0.1-0.8,0.1-1.2c0-0.4-0.1-0.8-0.1-1.2l19.6-2.3
		C230.3,261.2,230.4,261.4,230.4,261.6z M170.8,265.2l10.8-0.8c0,0,0,0,0,0c0,1.6,0.7,2.9,1.9,3.8l-12.4,16.1l-5.8-2l0.7-12.4
		C168.6,269.9,170.7,267.8,170.8,265.2z M168,218.9l10.3,13l-3,11.9c-0.3-0.1-0.6-0.2-0.9-0.2c-0.1,0-0.1,0-0.2,0l-6.8-24.5
		C167.7,219.1,167.8,219,168,218.9z M176.9,246.3l9.7-1.1c0.3,1,1.2,1.7,2.3,1.7c0.3,0,0.7-0.1,1-0.2l5.5,7l-6,6.9
		c-0.8-0.6-1.9-1-3-1c-1,0-1.8,0.3-2.6,0.8l-8-12.2C176.5,247.6,176.9,247,176.9,246.3z M200,264.5c0,1.5,0.7,2.8,1.7,3.8l-5.6,8
		l-6.1-8.5c0.6-0.6,1.1-1.5,1.3-2.4L200,264.5z M184.3,268.8c0.7,0.3,1.4,0.6,2.2,0.6c1,0,2-0.3,2.8-0.9l6.2,8.7l-6.2,8.9
		c-0.8-0.6-1.8-0.9-2.8-0.9c-2,0-3.7,1.2-4.5,3l-10-3.4L184.3,268.8z M190.1,286.7l6.1-8.7l11,15.2c-0.8,0.5-1.4,1.3-1.8,2.1
		l-14.1-4.6c0-0.3,0.1-0.6,0.1-0.8C191.3,288.7,190.9,287.6,190.1,286.7z M210,292.4c-0.7,0-1.4,0.1-2,0.4l-11.2-15.6l5.7-8.2
		c0.8,0.5,1.8,0.8,2.9,0.8c0.3,0,0.6,0,0.9-0.1l1.3,7.9c-0.9,0.4-1.6,1.2-1.6,2.3c0,1.4,1.1,2.5,2.5,2.5c0.8,0,1.6-0.4,2-1.1
		l5.1,2.2l-4,9.2C211.2,292.5,210.6,292.4,210,292.4z M211,280.4c0-0.2,0-0.3,0-0.5c0-1.3-1.1-2.4-2.4-2.5l-1.4-8
		c1.3-0.5,2.4-1.5,3-2.8l9.3,1.6c0.1,1,0.9,1.9,1.8,2.1l-5.3,12.3L211,280.4z M200.1,263.5l-8.7,0.9c0,0,0,0,0,0
		c0-1.2-0.5-2.4-1.2-3.2l5.9-6.8l5.2,6.5C200.7,261.7,200.3,262.5,200.1,263.5z M186.6,244.2l-9.7,1.1c-0.1-0.4-0.3-0.7-0.6-1
		l2.8-11.4l7.9,10C186.8,243.3,186.6,243.7,186.6,244.2z M165.5,219.6c0.4,0,0.7,0,1.1-0.1l6.8,24.4c-0.8,0.4-1.3,1.2-1.3,2.2
		c0,1.4,1.1,2.5,2.5,2.5c0.2,0,0.3,0,0.5-0.1l8.1,12.4c-0.7,0.7-1.2,1.6-1.4,2.5l-11,0.8c-0.4-2.3-2.4-4.1-4.8-4.1
		c-0.6,0-1.2,0.1-1.8,0.3l-4.7-9.2c1.4-0.9,2.3-2.4,2.3-4.1c0-1.7-0.8-3.1-2.1-4l5.3-9.4c0.2,0.1,0.4,0.1,0.6,0.1
		c1.3,0,2.3-1,2.3-2.3c0-1.3-1-2.3-2.3-2.3c-0.4,0-0.9,0.1-1.2,0.4L145.5,211c0.4-0.4,0.8-0.8,0.9-1.4l14.2,4.3
		c0,0.3-0.1,0.5-0.1,0.8C160.6,217.4,162.8,219.6,165.5,219.6z M170.5,285.2l-3.3,4.3c-0.6-0.5-1.4-0.9-2.2-1l0.3-5L170.5,285.2z
		 M167.9,290.2l3.6-4.7l10.3,3.5c-0.1,0.3-0.1,0.6-0.1,0.9c0,0.1,0,0.3,0,0.4l-13,1.3C168.5,291.1,168.2,290.6,167.9,290.2z
		 M183.7,293.8c0.8,0.6,1.8,0.9,2.8,0.9c0.3,0,0.7,0,1-0.1l3,12.4c-1.7,0.4-3.1,1.6-3.7,3.3l-19.4,1c-0.1-0.6-0.3-1.1-0.6-1.6
		L183.7,293.8z M167.5,312.3l19.1-1c0,0.2-0.1,0.4-0.1,0.7c0,1,0.3,2,0.8,2.8l-7,5.6c-0.9-0.7-1.9-1.2-3.1-1.2
		c-1.5,0-2.9,0.7-3.8,1.8l-6.8-5.8C167.1,314.4,167.5,313.4,167.5,312.3z M181,321.1l6.9-5.5c0.9,1,2.2,1.6,3.7,1.6
		c0.2,0,0.5,0,0.7-0.1l-0.2,7.9l-10.1,0.3c0.1-0.3,0.1-0.7,0.1-1C182.1,323,181.7,322,181,321.1z M196.4,310.5
		c-0.7-2-2.6-3.5-4.8-3.5c0,0-0.1,0-0.1,0l-3-12.6c1.1-0.5,2.1-1.4,2.5-2.6l14,4.6c-0.1,0.4-0.1,0.7-0.1,1.1c0,2.1,1.3,4,3.2,4.7
		l-2.7,9.3L196.4,310.5z M212.6,293.1l4-9.2l11.1,4.8c-0.1,0.3-0.1,0.6-0.1,0.9c0,0.5,0.1,1,0.3,1.5l-13.3,4.1
		C214.1,294.4,213.4,293.6,212.6,293.1z M232.5,284.7c-2.1,0-3.8,1.3-4.6,3l-11-4.7l5.5-12.7c0.3,0,0.5-0.1,0.7-0.3l17.6,7.2
		c-0.1,0.3-0.2,0.5-0.2,0.8c0,0.5,0.2,1,0.5,1.5l-5.5,6.2C234.7,285.1,233.7,284.7,232.5,284.7z M241.3,276.4l-17.3-7.1
		c0.3-0.4,0.5-0.9,0.5-1.4c0-0.2,0-0.4-0.1-0.6l6.5-4.8c0.9,1.4,2.4,2.3,4.2,2.3c1,0,1.9-0.3,2.7-0.8l4.1,12
		C241.6,276.1,241.5,276.3,241.3,276.4z M230.5,258c-0.2,0.6-0.4,1.2-0.4,1.9c0,0,0,0.1,0,0.1l-19.8,2.3c-0.8-1.9-2.7-3.2-4.9-3.2
		c-1.3,0-2.5,0.5-3.4,1.2l-5.2-6.6l3.8-4.3c0.4,0.2,0.8,0.3,1.2,0.3c1.2,0,2.3-0.9,2.4-2.1L230.5,258z M204,246.1
		c-0.3-0.7-0.9-1.2-1.7-1.3l0.6-15.4c1.1-0.1,2.2-0.5,3-1.2l12,11c-0.6,0.8-0.9,1.8-0.9,2.8c0,0.3,0,0.6,0.1,0.9L204,246.1z
		 M198.3,222.3c-0.3,0.7-0.5,1.4-0.5,2.2c0,1.5,0.7,2.8,1.8,3.7l-9.5,13.9c-0.3-0.1-0.6-0.2-1-0.2c-0.5,0-0.9,0.1-1.2,0.3l-8.4-10.6
		l4.1-16.7c0,0,0.1,0,0.1,0c0.7,0,1.3-0.3,1.8-0.8L198.3,222.3z M181.8,210.9c-0.4,0.4-0.7,1-0.7,1.7c0,0.1,0,0.1,0,0.2l-10.8,1.3
		c-0.3-2.4-2.4-4.2-4.9-4.2c-2.1,0-3.9,1.3-4.6,3.2l-13.8-4.1l5-3.3c0.3,0.1,0.6,0.2,1,0.2c0.6,0,1.2-0.2,1.6-0.6l18.1,0.1
		c0.3,0.9,1.1,1.6,2.2,1.6c0.6,0,1.2-0.3,1.6-0.7L181.8,210.9z M151.8,201.1c-0.4,0.3-0.8,0.7-1,1.2l-6.2-2l0.2-27.5
		c0,0,0.1,0,0.1,0L151.8,201.1z M57.6,108.5l9.7-0.1c0.3,0.8,1,1.5,1.9,1.6l0.7,5.3c-1.1,0.2-2.1,0.9-2.7,1.7l-10.2-6.5
		C57.3,109.9,57.5,109.2,57.6,108.5z M57.6,55.1c-0.2-0.5-0.5-0.9-0.9-1.2l3-13.6c1.4-0.1,2.7-0.9,3.5-2L82.9,50
		c-0.2,0.6-0.4,1.2-0.4,1.8c0,0,0,0,0,0.1L57.6,55.1z M101.5,36.5L89.7,48.3c-0.8-0.6-1.7-1-2.7-1c-0.2,0-0.5,0-0.7,0.1l-2.3-8.8
		c2.1-0.4,3.7-2.2,3.9-4.3l13.3,1.1C101.2,35.8,101.3,36.2,101.5,36.5z M104.1,53.5c0.1,0.9,0.8,1.7,1.6,2l0.3,15.1
		c-0.5,0.1-0.9,0.2-1.3,0.4l-4.4-9c0.6-0.5,1-1.1,1-1.9c0-1.4-1.1-2.5-2.5-2.5c-0.7,0-1.2,0.3-1.7,0.7l-6.2-4.3
		c0.2-0.4,0.4-0.8,0.5-1.2L104.1,53.5z M136.1,95.1c-0.1,0.4-0.2,0.7-0.2,1.1c0,1.9,1.4,3.5,3.2,3.9l1.2,7.8l-13-0.4
		c-0.2-2.5-2.2-4.5-4.8-4.5c-0.7,0-1.4,0.2-2.1,0.5l-5.3-8.5c0.5-0.3,0.9-0.8,1.1-1.4L136.1,95.1z M152.8,108.3l-11.5-0.4l-1.2-7.8
		c1.6-0.1,3-1.2,3.5-2.7l9.9,7.9c-0.4,0.7-0.7,1.6-0.7,2.5C152.8,108,152.8,108.2,152.8,108.3z M84.5,150.8l-7.9-4.9
		c0.5-0.8,0.9-1.8,0.9-2.9c0-0.4-0.1-0.8-0.1-1.2l3.1-0.5l4.4,9.3C84.6,150.6,84.5,150.7,84.5,150.8z M76.9,140.8
		c-0.2-0.4-0.4-0.8-0.7-1.2l2.3-2.3l1.4,2.9L76.9,140.8z M79.3,136.6l11.2-10.9c0.2,0,0.4,0.1,0.6,0.1c0.3,0,0.6-0.1,0.9-0.2
		l3.8,7.3c-1.7,0.9-2.8,2.7-2.8,4.7c0,0.1,0,0.3,0,0.4l-12.1,2.1L79.3,136.6z M72,107.9l10.1-3.5c0.1,0.1,0.1,0.2,0.2,0.3l-8.8,11.2
		c-0.7-0.5-1.6-0.8-2.6-0.8c0,0,0,0,0,0l-0.7-5.3C71.1,109.7,71.8,108.9,72,107.9z M79.1,96.4c0-0.3-0.1-0.5-0.2-0.8L92.2,87l2,4.1
		c-1.1,0.8-1.7,2.1-1.7,3.5c0,0.3,0,0.6,0.1,0.9L79.1,96.4z M72.6,79l13.8-22.8c0.2,0,0.4,0.1,0.6,0.1c0,0,0.1,0,0.1,0l-0.7,12.4
		c-0.2,0-0.3,0-0.5,0c-2.5,0-4.4,2-4.4,4.4c0,0.8,0.2,1.5,0.6,2.2l-9.2,4.2C72.8,79.2,72.7,79.1,72.6,79z M137,116.5l-11.5,2
		c-0.4-0.9-1.2-1.6-2.3-1.6c-1.2,0-2.2,0.8-2.4,2h-11.9c-0.1-0.7-0.5-1.2-1.1-1.6l-1.3-10.7c0.6-0.2,1.1-0.7,1.4-1.2l9.6,2.5
		c0.1,2.6,2.2,4.6,4.8,4.6c1.7,0,3.3-0.9,4.1-2.3l10.5,5c0,0.2-0.1,0.4-0.1,0.7C137,116.2,137,116.3,137,116.5z M98.3,132.2
		c-0.6,0-1.1,0.1-1.6,0.3l-3.9-7.4c0.4-0.4,0.7-1,0.7-1.7c0,0,0-0.1,0-0.1l10.8-2.8c0.2,0.4,0.4,0.7,0.8,0.9l-5,11.1
		C99.5,132.3,98.9,132.2,98.3,132.2z M75.6,120.3c0-0.1,0-0.2,0-0.3c0-1.4-0.6-2.6-1.5-3.5l8.8-11.2c0.3,0.2,0.7,0.3,1.1,0.3
		c1.1,0,2.1-0.8,2.4-1.8l8.9,0.5L91,120.9c-1,0-1.9,0.7-2.3,1.6L75.6,120.3z M111.5,93.6c0,0.2,0.1,0.3,0.2,0.4l-5.3,7.8
		c-0.2,0-0.3-0.1-0.5-0.1c-0.5,0-0.9,0.1-1.3,0.4l-4.2-4.5c0.7-0.8,1.1-1.8,1.1-3L111.5,93.6z M106.5,116.9c-1.4,0-2.5,1.1-2.5,2.5
		c0,0,0,0.1,0,0.1l-10.2,2.6l10.7-15.7c0.3,0.2,0.7,0.3,1.1,0.4l1.2,10.2C106.7,117,106.6,116.9,106.5,116.9z M97.9,99.1
		c0.7-0.1,1.3-0.4,1.8-0.8l4.1,4.5c-0.2,0.2-0.3,0.5-0.4,0.8l-6.7-0.3L97.9,99.1z M103.4,104.7c0.1,0.4,0.2,0.7,0.4,1l-10.9,16.1
		c-0.2-0.3-0.5-0.5-0.9-0.7l4.5-16.8L103.4,104.7z M117.7,106.9l-9.4-2.5c0,0,0-0.1,0-0.1c0-0.8-0.4-1.6-1-2l5.1-7.5
		c0.4,0.3,0.9,0.5,1.5,0.5c0.1,0,0.2,0,0.3,0l5.4,8.6C118.6,104.7,117.9,105.7,117.7,106.9z M111.3,92.6l-9.9,1.1
		c-0.5-2-2.3-3.5-4.4-3.5c-0.7,0-1.3,0.2-1.9,0.5l-2-4.1l11.6-7.5c0.6,0.3,1.2,0.4,1.9,0.4c0.4,0,0.8-0.1,1.2-0.2l4.7,11.6
		C111.8,91.2,111.4,91.9,111.3,92.6z M102.2,74.1L90.3,73c0-1-0.4-1.9-0.9-2.6l8-8.2c0.4,0.2,0.8,0.4,1.3,0.4c0.2,0,0.4,0,0.6-0.1
		l4.4,9.1C103,72.1,102.4,73,102.2,74.1z M96.7,61.5l-8,8.2c-0.4-0.3-0.8-0.6-1.3-0.8l0.8-12.8c0.9-0.2,1.6-0.7,2.2-1.3l6.2,4.3
		c-0.1,0.3-0.2,0.6-0.2,1C96.2,60.6,96.4,61.1,96.7,61.5z M90.2,74l11.8,1.1c0,1.4,0.7,2.5,1.6,3.3l-11.1,7.2l-4.3-8.8
		C89.3,76.2,90,75.2,90.2,74z M96.8,99.2l-1.1,4.1l-9.2-0.5c0-0.2-0.1-0.4-0.1-0.5l7.1-4.7C94.4,98.6,95.5,99.2,96.8,99.2z
		 M75.5,121.3l13.1,2.2c0,0.7,0.4,1.4,0.9,1.8l-10.7,10.4l-5.5-11.5C74.4,123.5,75.1,122.5,75.5,121.3z M100.9,132.9l5-11.1
		c0.2,0,0.4,0.1,0.5,0.1c1.2,0,2.2-0.8,2.4-2l11.9,0c0,0.2,0.1,0.4,0.2,0.5l-18.6,13.8C102,133.7,101.5,133.3,100.9,132.9z
		 M125.7,119.5l11.5-2c0.4,1.2,1.2,2.2,2.2,2.8l-10.1,16.6c-0.7-0.5-1.6-0.8-2.6-0.8l-2.6-14.3C125.1,121.3,125.7,120.5,125.7,119.5
		z M137.3,114.3l-10.3-4.9c0.1-0.3,0.2-0.6,0.2-1l13.2,0.4l0.4,2.3C139.2,111.6,137.9,112.8,137.3,114.3z M113.7,90.4
		c-0.1,0-0.2,0-0.3,0l-4.7-11.6c1.4-0.8,2.3-2.2,2.3-3.9c0-0.3,0-0.5-0.1-0.8L121,63.5c0.1,0.1,0.1,0.2,0.2,0.3L113.7,90.4z
		 M120.5,62.6l-9.9,10.5c-0.6-1.4-2-2.4-3.6-2.5l-0.3-15c0.8-0.1,1.4-0.4,1.9-1l11.8,5c-0.1,0.4-0.2,0.8-0.2,1.3
		C120.1,61.5,120.2,62.1,120.5,62.6z M78.1,34.4c0.3,2.5,2.3,4.4,4.9,4.4l2.3,9c-0.7,0.3-1.4,0.8-1.8,1.4L63.7,37.5
		c0.3-0.6,0.4-1.3,0.5-2l13.3-1.1L78.1,34.4z M85.4,55.9L71.7,78.5c-0.3-0.1-0.5-0.2-0.8-0.2c-0.5,0-1,0.2-1.4,0.4l-8.5-8.4
		c0.3-0.4,0.4-0.9,0.4-1.4c0-0.2,0-0.3-0.1-0.5l22.2-13.6C84.2,55.3,84.7,55.7,85.4,55.9z M60.3,71l8.5,8.5
		c-0.3,0.4-0.4,0.9-0.4,1.4c0,0.4,0.1,0.8,0.3,1.2l-6.6,5.6c-0.7-0.6-1.6-1.1-2.6-1.2l0-15.1C59.8,71.3,60.1,71.2,60.3,71z
		 M62.8,88.4l6.6-5.6c0.4,0.3,0.9,0.5,1.5,0.5c1.4,0,2.5-1.1,2.5-2.5c0-0.2,0-0.4-0.1-0.5l9.3-4.3c0.8,0.9,2,1.5,3.3,1.5
		c0.5,0,1-0.1,1.5-0.3l4.4,8.9l-13.3,8.6c-0.8-1.2-2.2-2-3.7-2c-1.8,0-3.3,1-4,2.5l-7.4-3.1c0.1-0.4,0.2-0.8,0.2-1.3
		C63.6,90,63.3,89.1,62.8,88.4z M74.8,101.6c2.4,0,4.3-1.9,4.4-4.2l13.7-0.8c0,0.1,0.1,0.1,0.1,0.2l-7.1,4.7
		c-0.4-0.4-1.1-0.7-1.7-0.7c-1.4,0-2.5,1.1-2.5,2.5c0,0.1,0,0.2,0,0.3l-9.8,3.4c-0.1-0.4-0.4-0.8-0.7-1.2l2.7-4.2
		C74.2,101.6,74.5,101.6,74.8,101.6z M70.8,124.8c0.6,0,1.1-0.1,1.6-0.3l5.6,11.9l-2.6,2.5c-0.9-0.8-2.1-1.3-3.5-1.3
		c-1.1,0-2.2,0.4-3.1,1l-10-11.9c0.3-0.4,0.5-0.9,0.5-1.5c0-0.1,0-0.2,0-0.3l7.2-2.5C67.4,123.8,69,124.8,70.8,124.8z M57,127.6
		c0.4,0,0.8-0.1,1.2-0.3l10,11.9c-0.7,0.7-1.1,1.5-1.4,2.5l-11.5-1.7c0-0.1,0-0.1,0-0.2c0-1.8-1-3.4-2.5-4.3l3.6-8
		C56.6,127.6,56.8,127.6,57,127.6z M55.2,141.1l11.5,1.7c0,0.1,0,0.2,0,0.3c0,1.9,1,3.5,2.5,4.5l-3.3,6.3c-0.1,0-0.2,0-0.2,0
		c-0.4,0-0.8,0.1-1.1,0.3l-10.3-11C54.6,142.5,55,141.8,55.2,141.1z M66.8,154.1l3.2-6.2c0.6,0.3,1.3,0.4,2,0.4
		c0.4,0,0.9-0.1,1.3-0.2l0.7,12.4c-0.9,0.1-1.6,0.5-2.3,1l-4.2-4.3c0.2-0.4,0.4-0.8,0.4-1.2C67.8,155.2,67.4,154.5,66.8,154.1z
		 M77.6,161.4c-0.8-0.5-1.7-0.9-2.7-0.9l-0.7-12.6c0.6-0.3,1.2-0.7,1.6-1.2l8,5c-0.1,0.3-0.2,0.5-0.2,0.8c0,0.6,0.2,1.1,0.5,1.5
		L77.6,161.4z M87.4,150.3c-0.3-0.2-0.7-0.3-1.1-0.3c-0.2,0-0.4,0-0.6,0.1l-4.3-9.1l11.8-2.1c0.3,0.9,0.7,1.8,1.4,2.4L87.4,150.3z
		 M103,135.1l18.6-13.8c0.4,0.4,1,0.6,1.6,0.6l2.6,14.2c-2,0.3-3.5,1.8-4,3.7l-18.1-2.1c0,0,0-0.1,0-0.1
		C103.7,136.7,103.4,135.8,103,135.1z M145.8,113c-0.9-1.2-2.3-1.9-3.9-1.9c0,0-0.1,0-0.1,0l-0.3-2.2l11.5,0.4
		c0.1,0.2,0.1,0.4,0.2,0.6L145.8,113z M192.7,90.1l9.1-16l8.3,6.6c-0.1,0.4-0.2,0.8-0.2,1.2c0,1.1,0.4,2.1,1,3l-17.1,6.3
		C193.5,90.7,193.1,90.4,192.7,90.1z M213,77.3c-1.1,0.5-2,1.3-2.6,2.4l-8.2-6.5l4.9-8.7c0.2,0.1,0.5,0.1,0.7,0.1c0.1,0,0.2,0,0.4,0
		L213,77.3z M198.1,65.8l7.7-2.4c0.1,0.2,0.3,0.5,0.5,0.7l-4.8,8.5l-4.1-3.3c0.5-0.8,0.8-1.7,0.8-2.7
		C198.2,66.3,198.2,66,198.1,65.8z M187.4,80.7c0,0.1,0,0.1,0,0.2c0,1.4,1.1,2.5,2.5,2.5s2.5-1.1,2.5-2.5c0-1.4-1.1-2.5-2.5-2.5
		l1.7-7.1c0.5,0.2,1.1,0.3,1.7,0.3c1.4,0,2.6-0.6,3.5-1.5l4.2,3.4l-9.1,16.1c-0.7-0.3-1.4-0.5-2.2-0.5c-2.7,0-4.9,2.2-4.9,4.9
		c0,0.6,0.1,1.2,0.3,1.8L162,105c-0.9-1.3-2.4-2.1-4.1-2.1c-1.5,0-2.9,0.7-3.8,1.8l-10.3-8.2c0,0,0-0.1,0-0.1c0-0.5-0.1-0.9-0.2-1.3
		l22-5.1c0.4,0.8,1.2,1.4,2.2,1.4c1.4,0,2.5-1.1,2.5-2.5c0-0.5-0.2-1-0.4-1.4l8.8-9.4c0.3,0.2,0.7,0.3,1.1,0.3
		c0.7,0,1.3-0.3,1.8-0.7L187.4,80.7z M129,76.9c-0.8,0.4-1.3,1.2-1.3,2.2c0,1.4,1.1,2.5,2.5,2.5c1.4,0,2.5-1.1,2.5-2.5
		c0-0.7-0.3-1.3-0.8-1.8l7.5-12c0.3,0.1,0.6,0.2,0.9,0.2c0.3,0,0.5,0,0.7-0.1l3.1,5.5c-1.3,0.9-2.2,2.4-2.2,4.1
		c0,2.7,2.2,4.9,4.9,4.9c0.5,0,0.9-0.1,1.4-0.2l1.8,5c-0.6,0.4-1,1.1-1,1.9c0,1.3,1,2.3,2.3,2.3c1,0,1.8-0.6,2.1-1.5l11.7,1.5
		l-21.8,5c-0.7-1-1.9-1.7-3.2-1.7c-1.4,0-2.6,0.7-3.3,1.9l-20.3-1.5c-0.1-0.9-0.7-1.7-1.6-2l7.4-26c0.7,0.5,1.6,0.8,2.5,0.8
		c0.4,0,0.8-0.1,1.2-0.2L129,76.9z M167.2,37.3l-1.3,0.7c-0.7-0.8-1.7-1.3-2.9-1.3c-0.1,0-0.2,0-0.2,0c-1.9,0.1-3.3,1.5-3.7,3.3
		l-6.5-0.4c0-1.3-1.1-2.4-2.5-2.4c-1.4,0-2.5,1.1-2.5,2.5c0,0.6,0.2,1.1,0.5,1.5l-3.2,2.9c-0.6-0.6-1.4-1-2.3-1.2l-1.8-7.2
		c2-0.4,3.5-2.1,3.8-4.1l22.4,5c0,0,0,0,0,0C167.1,36.9,167.1,37.1,167.2,37.3z M137.9,35.5l-10.8,21.8c-0.5-0.4-1.1-0.6-1.7-0.8
		l0.9-9.9c2.6-0.1,4.7-2.2,4.7-4.8c0-1.1-0.3-2-0.9-2.8l5.8-5.2C136.4,34.5,137.1,35.1,137.9,35.5z M121.4,41.3
		c0,0.2-0.1,0.3-0.1,0.5c0,2.4,1.7,4.3,4,4.7l-0.9,9.9c-1.6,0-3,0.9-3.7,2.2l-11.8-5c0-0.2,0-0.3,0-0.5c0-0.5-0.2-1-0.4-1.4l6.6-9.4
		c0.4,0.2,0.8,0.3,1.3,0.3c1.3,0,2.4-0.7,2.9-1.8L121.4,41.3z M113.3,38.9c0,0.2-0.1,0.3-0.1,0.5c0,1,0.4,1.8,1.1,2.4l-6.5,9.2
		c-0.4-0.2-0.8-0.4-1.3-0.4c-1.1,0-2.1,0.8-2.4,1.8l-12.7-0.8c0-1-0.4-1.9-1-2.7l11.8-11.9c0.4,0.3,0.8,0.4,1.3,0.4
		c0.9,0,1.7-0.5,2.1-1.2L113.3,38.9z M54.3,35.5c0,0.7,0.2,1.4,0.5,2l-12,8.7c-0.3-0.3-0.7-0.5-1.1-0.6l0.2-8.6
		c1.7-0.2,3.2-1.4,3.7-3L54.3,35.5z M30.7,34c0.4,0.3,0.9,0.4,1.5,0.4c1.1,0,2.1-0.7,2.5-1.7l2.4,0.2c0,0.3,0.1,0.6,0.1,0.9
		l-11.6,4.5L30.7,34z M23.8,42.7c0-0.8-0.3-1.6-0.7-2.2l0.2-0.2l14.3-5.6c0.6,1.2,1.8,2,3.2,2.2l-0.2,8.6c-0.8,0.1-1.4,0.6-1.7,1.3
		L23.8,42.7z M43.3,47l12-8.6c0.8,1.1,2,1.8,3.4,1.9l-2.9,13.2c-0.2,0-0.3-0.1-0.5-0.1c-0.5,0-1,0.2-1.5,0.5l-10.3-5.3
		c0.1-0.2,0.1-0.4,0.1-0.6C43.6,47.7,43.5,47.3,43.3,47z M56.4,58.1c0.7-0.4,1.2-1.1,1.3-2l25-3.2c0.1,0.4,0.3,0.8,0.4,1.1
		L61.1,67.5c-0.4-0.6-1.2-1-2-1c-0.1,0-0.1,0-0.2,0L56.4,58.1z M58.2,95.4c0.3,0,0.5,0.1,0.8,0.1c1.7,0,3.2-1,3.9-2.4l7.4,3.1
		c-0.1,0.3-0.1,0.6-0.1,1c0,1.8,1.1,3.3,2.6,4l-2.5,4c-0.3-0.1-0.5-0.2-0.8-0.2c-1.3,0-2.4,1-2.4,2.3l-9.5,0.1
		c-0.2-1.3-0.9-2.5-2-3.1L58.2,95.4z M53.2,112.5c1.2,0,2.3-0.5,3.1-1.3l10.2,6.6c-0.3,0.7-0.5,1.4-0.5,2.2c0,0.5,0.1,0.9,0.2,1.4
		l-7.2,2.5c-0.4-0.7-1.2-1.2-2.1-1.2c-0.9,0-1.6,0.5-2.1,1.1l-6.3-3.4c0.2-0.4,0.3-0.9,0.3-1.4c0-1.1-0.4-2.1-1.1-2.8l3.4-4.3
		C51.7,112.3,52.4,112.5,53.2,112.5z M46.4,122.7c0.7-0.3,1.3-0.8,1.7-1.4l6.4,3.4c0,0.1,0,0.3,0,0.4c0,0.8,0.4,1.5,1,2l-3.6,8
		c-0.5-0.2-1-0.3-1.5-0.3c-0.3,0-0.5,0-0.8,0.1L46.4,122.7z M68.8,170.6l2.3-1.8c0.9,0.9,2.2,1.5,3.6,1.5c2.7,0,4.9-2.2,4.9-4.9
		c0-1.3-0.5-2.4-1.3-3.3l6.6-7.4c0.4,0.2,0.8,0.3,1.2,0.3c1.4,0,2.5-1.1,2.5-2.5c0-0.6-0.2-1.1-0.6-1.6l7.2-8.9
		c0.9,0.6,1.9,0.9,3,0.9c2.6,0,4.7-1.8,5.3-4.3l18.1,2.1c0,0.1,0,0.1,0,0.2c0,2.7,2.2,4.9,4.9,4.9c1,0,2-0.3,2.8-0.8l11.8,19.1
		c-1.1,0.9-1.8,2.3-1.8,3.8c0,2.5,1.9,4.6,4.4,4.9l-0.2,27.2l-22.7-7.2c0-0.1,0-0.2,0-0.3c0-1.4-1.1-2.5-2.5-2.5l-6.6-14.2
		c0.1-0.3,0.2-0.6,0.2-1c0-1.4-1.1-2.5-2.5-2.5c-1.4,0-2.5,1.1-2.5,2.5c0,0.1,0,0.1,0,0.2l-4.2,1.6c-0.5-0.5-1.1-0.8-1.8-0.8
		c-1.1,0-1.9,0.7-2.3,1.6l-7.9,0.7c-0.2-1.1-1.2-1.9-2.4-1.9c-1.1,0-2.1,0.8-2.4,1.8l-16.9-5.5c0-0.2,0.1-0.3,0.1-0.5
		C69.3,171.5,69.1,171,68.8,170.6z M115,193.8c-0.4-0.3-0.8-0.4-1.3-0.4c-0.2,0-0.4,0-0.7,0.1l-10.1-5.4c0.1-0.3,0.2-0.6,0.2-0.9
		c0-1.2-0.8-2.2-1.9-2.4l0-4.1c0,0,0,0,0,0c1.4,0,2.5-1.1,2.5-2.5c0-0.3-0.1-0.6-0.1-0.8l3.9-1.5c0.4,0.8,1.2,1.3,2.2,1.3
		c0.6,0,1.1-0.2,1.6-0.6l6.3,13.5c-0.9,0.4-1.5,1.2-1.5,2.3c0,0.3,0.1,0.6,0.2,0.8L115,193.8z M121.5,194l22.1,7l0,5.6
		c-0.8,0.2-1.4,0.7-1.8,1.4L121.5,194z M136.8,219.5c0.4-0.1,0.8-0.2,1.2-0.5l15.6,24.3c-1.1,0.9-1.9,2.3-1.9,3.8
		c0,0.5,0.1,0.9,0.2,1.3l-13.7,5.4c-0.4-0.4-0.9-0.6-1.4-0.7l-1.4-15.4c2.3-0.4,4-2.4,4-4.8c0-2.3-1.6-4.3-3.8-4.8L136.8,219.5z
		 M138.8,256.7l10.1,1.3c0.1,1,0.8,1.8,1.7,2l-0.1,10.8c-1.1,0.1-2.2,0.6-2.9,1.3l-9.9-14.2C138.1,257.6,138.5,257.2,138.8,256.7z
		 M155,278.9c0.6-0.9,1-1.9,1-3c0-0.9-0.3-1.8-0.7-2.5l6.9-4.9c0.7,0.8,1.7,1.4,2.9,1.6l-0.7,12.1L155,278.9z M164.7,298.2
		c2.4-0.3,4.3-2.4,4.3-4.9c0-0.2,0-0.5-0.1-0.7l13-1.3c0.2,0.7,0.6,1.3,1,1.9l-16.8,15.8c-0.4-0.5-0.9-0.9-1.5-1.2V298.2z
		 M165.6,316.2l6.9,6.4c-0.2,0.5-0.3,1-0.3,1.6c0,1.4,0.6,2.7,1.6,3.6l-5.1,9.2c-0.3-0.2-0.7-0.3-1.2-0.3l-3.7-19.5
		C164.5,317,165,316.6,165.6,316.2z M168.4,341.4c0.4-0.2,0.7-0.4,0.9-0.7l15.3,7.7c-0.2,0.5-0.3,1.1-0.3,1.7l-10.5,0.6
		c-0.4-0.9-1.2-1.5-2.3-1.5c-0.1,0-0.2,0-0.2,0L168.4,341.4z M182.9,374.5C182.9,374.5,182.8,374.5,182.9,374.5c-0.3,0-0.5,0-0.6,0
		l-9.3-21c0.5-0.4,0.9-1,1-1.7l10.4-0.9c0.3,1.8,1.7,3.3,3.4,3.8L182.9,374.5z M189.2,345.2c-0.3,0-0.6,0-0.9,0.1l-9.1-16.7
		c1-0.5,1.9-1.3,2.3-2.4l10.4-0.3l-0.6,19.8C190.8,345.4,190.1,345.2,189.2,345.2z M193.3,316.8c0.4-0.1,0.8-0.3,1.1-0.5l5.7,7
		c-0.3,0.4-0.5,0.9-0.6,1.4l-6.5,0.2L193.3,316.8z M203.2,322.6l2.9-10.1l4.4,0.5c0,0.3-0.1,0.5-0.1,0.8c0,1,0.3,1.8,0.8,2.6
		L203.2,322.6z M218.3,309.9c-0.8-0.6-1.8-0.9-2.8-0.9c-0.3,0-0.6,0-0.9,0.1l-2.1-7.1c1.6-0.9,2.7-2.5,2.7-4.5
		c0-0.5-0.1-0.9-0.2-1.3l13.4-4.1c0.3,0.6,0.8,1.1,1.4,1.6L218.3,309.9z"/>
	<circle class="st0" cx="213.1" cy="41.2" r="4"/>
	<circle class="st0" cx="332.5" cy="74.4" r="2.5"/>
	<circle class="st0" cx="217.1" cy="33.8" r="2.5"/>
</g>
</svg>
